Lab2/cocotb/SinglePulserTB/waveform.vcd
$date
	Sat Jan 18 20:30:15 2025
$end
$version
	Icarus Verilog
$end
$timescale
	1ps
$end
$scope module SinglePulserTB $end
$var wire 1 ! Clk $end
$var wire 1 " DataIn $end
$var wire 1 # Reset $end
$var wire 1 $ DataOut $end
$scope module SinglePulserInst $end
$var wire 1 ! Clk $end
$var wire 1 " DataIn $end
$var wire 1 $ DataOut $end
$var wire 1 # Reset $end
$var reg 1 % dataOut $end
$var reg 1 & prev_DataIn $end
$upscope $end
$upscope $end
$enddefinitions $end
$comment Show the parameter values. $end
$dumpall
$end
#0
$dumpvars
0&
0%
0$
1#
0"
1!
$end
#500
0!
#1000
1!
#1200
0#
#1500
0!
#2000
1!
#2200
1"
#2500
0!
#3000
1&
1$
1%
1!
#3500
0!
#4000
0$
0%
1!
#4200
0"
#4500
0!
#5000
0&
1!
#5200
1"
#5500
0!
#6000
1&
1$
1%
1!
#6500
0!
#7000
0$
0%
1!
#7200
1#
#7500
0!
#8000
0&
1!
#8200
0"
0#
#8500
0!
#9000
1!
#9200
1"
#9500
0!
#10000
1&
1$
1%
1!
#10500
0!
#11000
0$
0%
1!
#11200
0"
#11500
0!
#12000
0&
1!
#12200
1"
#12500
0!
#13000
1&
1$
1%
1!
#13500
0!
#14000
0$
0%
1!
#14200
0"
#14500
0!
#15000
0&
1!
#15200
1"
#15500
0!
#16000
1&
1$
1%
1!
#16500
0!
#17000
0$
0%
1!
#17200
0"
#17500
0!
#18000
0&
1!
#18200
1"
#18500
0!
#19000
1&
1$
1%
1!
#19500
0!
#20000
0$
0%
1!
#20200
0"
#20500
0!
#21000
0&
1!
#21200
1"
#21500
0!
#22000
1&
1$
1%
1!
#22500
0!
#23000
0$
0%
1!
#23200
0"
#23500
0!
#24000
0&
1!
#24200
1"
#24500
0!
#25000
1&
1$
1%
1!
#25500
0!
#26000
0$
0%
1!
#26200
0"
#26500
0!
#27000
0&
1!
#27200
1"
#27500
0!
#28000
1&
1$
1%
1!
#28500
0!
#29000
0$
0%
1!
#29200
0"
#29500
0!
#30000
0&
1!
#30200
1"
#30500
0!
#31000
1&
1$
1%
1!
#31500
0!
#32000
0$
0%
1!
#32200
0"
#32500
0!
#33000
0&
1!
#33200
1"
#33500
0!
#34000
1&
1$
1%
1!
#34500
0!
#35000
0$
0%
1!
#35200
0"
#35500
0!
#36000
0&
1!
#36200
1"
#36500
0!
#37000
1&
1$
1%
1!
#37500
0!
#38000
0$
0%
1!
#38200
0"
#38500
0!
#39000
0&
1!
#39200
1#
#39500
0!
#40000
1!
#40200
0#
#40500
0!
#41000
1!
#41200
1"
#41500
0!
#42000
1&
1$
1%
1!
#42500
0!
#43000
0$
0%
1!
#43200
0"
#43500
0!
#44000
0&
1!
#44200
1"
#44500
0!
#45000
1&
1$
1%
1!
#45500
0!
#46000
0$
0%
1!
#46200
0"
#46500
0!
#47000
0&
1!
#47200
1"
#47500
0!
#48000
1&
1$
1%
1!
#48500
0!
#49000
0$
0%
1!
#49200
0"
#49500
0!
#50000
0&
1!
#50200
1"
#50500
0!
#51000
1&
1$
1%
1!
#51500
0!
#52000
0$
0%
1!
#52200
0"
#52500
0!
#53000
0&
1!
#53200
1"
#53500
0!
#54000
1&
1$
1%
1!
#54500
0!
#55000
0$
0%
1!
#55200
0"
#55500
0!
#56000
0&
1!
#56200
1"
#56500
0!
#57000
1&
1$
1%
1!
#57500
0!
#58000
0$
0%
1!
#58200
0"
#58500
0!
#59000
0&
1!
#59200
1"
#59500
0!
#60000
1&
1$
1%
1!
#60500
0!
#61000
0$
0%
1!
#61200
0"
#61500
0!
#62000
0&
1!
#62200
1"
#62500
0!
#63000
1&
1$
1%
1!
#63500
0!
#64000
0$
0%
1!
#64200
0"
#64500
0!
#65000
0&
1!
#65200
1"
#65500
0!
#66000
1&
1$
1%
1!
#66500
0!
#67000
0$
0%
1!
#67200
0"
#67500
0!
#68000
0&
1!
#68200
1"
#68500
0!
#69000
1&
1$
1%
1!
#69500
0!
#70000
0$
0%
1!
#70200
0"
#70500
0!
#71000
0&
1!
#71200
1#
#71500
0!
#72000
1!
#72200
0#
#72500
0!
#73000
1!
#73200
1"
#73500
0!
#74000
1&
1$
1%
1!
#74500
0!
#75000
0$
0%
1!
#75200
0"
#75500
0!
#76000
0&
1!
#76200
1"
#76500
0!
#77000
1&
1$
1%
1!
#77500
0!
#78000
0$
0%
1!
#78200
0"
#78500
0!
#79000
0&
1!
#79200
1"
#79500
0!
#80000
1&
1$
1%
1!
#80500
0!
#81000
0$
0%
1!
#81200
0"
#81500
0!
#82000
0&
1!
#82200
1"
#82500
0!
#83000
1&
1$
1%
1!
#83500
0!
#84000
0$
0%
1!
#84200
0"
#84500
0!
#85000
0&
1!
#85200
1"
#85500
0!
#86000
1&
1$
1%
1!
#86500
0!
#87000
0$
0%
1!
#87200
0"
#87500
0!
#88000
0&
1!
#88200
1"
#88500
0!
#89000
1&
1$
1%
1!
#89500
0!
#90000
0$
0%
1!
#90200
0"
#90500
0!
#91000
0&
1!
#91200
1"
#91500
0!
#92000
1&
1$
1%
1!
#92500
0!
#93000
0$
0%
1!
#93200
0"
#93500
0!
#94000
0&
1!
#94200
1"
#94500
0!
#95000
1&
1$
1%
1!
#95500
0!
#96000
0$
0%
1!
#96200
0"
#96500
0!
#97000
0&
1!
#97200
1"
#97500
0!
#98000
1&
1$
1%
1!
#98500
0!
#99000
0$
0%
1!
#99200
0"
#99500
0!
#100000
0&
1!
#100200
1"
#100500
0!
#101000
1&
1$
1%
1!
#101500
0!
#102000
0$
0%
1!
#102200
0"
#102500
0!
#103000
0&
1!
#103200
1#
#103500
0!
#104000
1!
#104200
0#
#104500
0!
#105000
1!
#105200
1"
#105500
0!
#106000
1&
1$
1%
1!
#106500
0!
#107000
0$
0%
1!
#107200
0"
#107500
0!
#108000
0&
1!
#108200
1"
#108500
0!
#109000
1&
1$
1%
1!
#109500
0!
#110000
0$
0%
1!
#110200
0"
#110500
0!
#111000
0&
1!
#111200
1"
#111500
0!
#112000
1&
1$
1%
1!
#112500
0!
#113000
0$
0%
1!
#113200
0"
#113500
0!
#114000
0&
1!
#114200
1"
#114500
0!
#115000
1&
1$
1%
1!
#115500
0!
#116000
0$
0%
1!
#116200
0"
#116500
0!
#117000
0&
1!
#117200
1"
#117500
0!
#118000
1&
1$
1%
1!
#118500
0!
#119000
0$
0%
1!
#119200
0"
#119500
0!
#120000
0&
1!
#120200
1"
#120500
0!
#121000
1&
1$
1%
1!
#121500
0!
#122000
0$
0%
1!
#122200
0"
#122500
0!
#123000
0&
1!
#123200
1"
#123500
0!
#124000
1&
1$
1%
1!
#124500
0!
#125000
0$
0%
1!
#125200
0"
#125500
0!
#126000
0&
1!
#126200
1"
#126500
0!
#127000
1&
1$
1%
1!
#127500
0!
#128000
0$
0%
1!
#128200
0"
#128500
0!
#129000
0&
1!
#129200
1"
#129500
0!
#130000
1&
1$
1%
1!
#130500
0!
#131000
0$
0%
1!
#131200
0"
#131500
0!
#132000
0&
1!
#132200
1"
#132500
0!
#133000
1&
1$
1%
1!
#133500
0!
#134000
0$
0%
1!
#134200
0"
#134500
0!
#135000
0&
1!
#135200
1#
#135500
0!
#136000
1!
#136200
0#
#136500
0!
#137000
1!
#137200
1"
#137500
0!
#138000
1&
1$
1%
1!
#138500
0!
#139000
0$
0%
1!
#139200
0"
#139500
0!
#140000
0&
1!
#140200
1"
#140500
0!
#141000
1&
1$
1%
1!
#141500
0!
#142000
0$
0%
1!
#142200
0"
#142500
0!
#143000
0&
1!
#143200
1"
#143500
0!
#144000
1&
1$
1%
1!
#144500
0!
#145000
0$
0%
1!
#145200
0"
#145500
0!
#146000
0&
1!
#146200
1"
#146500
0!
#147000
1&
1$
1%
1!
#147500
0!
#148000
0$
0%
1!
#148200
0"
#148500
0!
#149000
0&
1!
#149200
1"
#149500
0!
#150000
1&
1$
1%
1!
#150500
0!
#151000
0$
0%
1!
#151200
0"
#151500
0!
#152000
0&
1!
#152200
1"
#152500
0!
#153000
1&
1$
1%
1!
#153500
0!
#154000
0$
0%
1!
#154200
0"
#154500
0!
#155000
0&
1!
#155200
1"
#155500
0!
#156000
1&
1$
1%
1!
#156500
0!
#157000
0$
0%
1!
#157200
0"
#157500
0!
#158000
0&
1!
#158200
1"
#158500
0!
#159000
1&
1$
1%
1!
#159500
0!
#160000
0$
0%
1!
#160200
0"
#160500
0!
#161000
0&
1!
#161200
1"
#161500
0!
#162000
1&
1$
1%
1!
#162500
0!
#163000
0$
0%
1!
#163200
0"
#163500
0!
#164000
0&
1!
#164200
1"
#164500
0!
#165000
1&
1$
1%
1!
#165500
0!
#166000
0$
0%
1!
#166200
0"
#166500
0!
#167000
0&
1!
#167200
1#
#167500
0!
#168000
1!
#168200
0#
#168500
0!
#169000
1!
#169200
1"
#169500
0!
#170000
1&
1$
1%
1!
#170500
0!
#171000
0$
0%
1!
#171200
0"
#171500
0!
#172000
0&
1!
#172200
1"
#172500
0!
#173000
1&
1$
1%
1!
#173500
0!
#174000
0$
0%
1!
#174200
0"
#174500
0!
#175000
0&
1!
#175200
1"
#175500
0!
#176000
1&
1$
1%
1!
#176500
0!
#177000
0$
0%
1!
#177200
0"
#177500
0!
#178000
0&
1!
#178200
1"
#178500
0!
#179000
1&
1$
1%
1!
#179500
0!
#180000
0$
0%
1!
#180200
0"
#180500
0!
#181000
0&
1!
#181200
1"
#181500
0!
#182000
1&
1$
1%
1!
#182500
0!
#183000
0$
0%
1!
#183200
0"
#183500
0!
#184000
0&
1!
#184200
1"
#184500
0!
#185000
1&
1$
1%
1!
#185500
0!
#186000
0$
0%
1!
#186200
0"
#186500
0!
#187000
0&
1!
#187200
1"
#187500
0!
#188000
1&
1$
1%
1!
#188500
0!
#189000
0$
0%
1!
#189200
0"
#189500
0!
#190000
0&
1!
#190200
1"
#190500
0!
#191000
1&
1$
1%
1!
#191500
0!
#192000
0$
0%
1!
#192200
0"
#192500
0!
#193000
0&
1!
#193200
1"
#193500
0!
#194000
1&
1$
1%
1!
#194500
0!
#195000
0$
0%
1!
#195200
0"
#195500
0!
#196000
0&
1!
#196200
1"
#196500
0!
#197000
1&
1$
1%
1!
#197500
0!
#198000
0$
0%
1!
#198200
0"
#198500
0!
#199000
0&
1!
#199200
1#
#199500
0!
#200000
1!
#200200
0#
#200500
0!
#201000
1!
#201200
1"
#201500
0!
#202000
1&
1$
1%
1!
#202500
0!
#203000
0$
0%
1!
#203200
0"
#203500
0!
#204000
0&
1!
#204200
1"
#204500
0!
#205000
1&
1$
1%
1!
#205500
0!
#206000
0$
0%
1!
#206200
0"
#206500
0!
#207000
0&
1!
#207200
1"
#207500
0!
#208000
1&
1$
1%
1!
#208500
0!
#209000
0$
0%
1!
#209200
0"
#209500
0!
#210000
0&
1!
#210200
1"
#210500
0!
#211000
1&
1$
1%
1!
#211500
0!
#212000
0$
0%
1!
#212200
0"
#212500
0!
#213000
0&
1!
#213200
1"
#213500
0!
#214000
1&
1$
1%
1!
#214500
0!
#215000
0$
0%
1!
#215200
0"
#215500
0!
#216000
0&
1!
#216200
1"
#216500
0!
#217000
1&
1$
1%
1!
#217500
0!
#218000
0$
0%
1!
#218200
0"
#218500
0!
#219000
0&
1!
#219200
1"
#219500
0!
#220000
1&
1$
1%
1!
#220500
0!
#221000
0$
0%
1!
#221200
0"
#221500
0!
#222000
0&
1!
#222200
1"
#222500
0!
#223000
1&
1$
1%
1!
#223500
0!
#224000
0$
0%
1!
#224200
0"
#224500
0!
#225000
0&
1!
#225200
1"
#225500
0!
#226000
1&
1$
1%
1!
#226500
0!
#227000
0$
0%
1!
#227200
0"
#227500
0!
#228000
0&
1!
#228200
1"
#228500
0!
#229000
1&
1$
1%
1!
#229500
0!
#230000
0$
0%
1!
#230200
0"
#230500
0!
#231000
0&
1!
#231200
1#
#231500
0!
#232000
1!
#232200
0#
#232500
0!
#233000
1!
#233200
1"
#233500
0!
#234000
1&
1$
1%
1!
#234500
0!
#235000
0$
0%
1!
#235200
0"
#235500
0!
#236000
0&
1!
#236200
1"
#236500
0!
#237000
1&
1$
1%
1!
#237500
0!
#238000
0$
0%
1!
#238200
0"
#238500
0!
#239000
0&
1!
#239200
1"
#239500
0!
#240000
1&
1$
1%
1!
#240500
0!
#241000
0$
0%
1!
#241200
0"
#241500
0!
#242000
0&
1!
#242200
1"
#242500
0!
#243000
1&
1$
1%
1!
#243500
0!
#244000
0$
0%
1!
#244200
0"
#244500
0!
#245000
0&
1!
#245200
1"
#245500
0!
#246000
1&
1$
1%
1!
#246500
0!
#247000
0$
0%
1!
#247200
0"
#247500
0!
#248000
0&
1!
#248200
1"
#248500
0!
#249000
1&
1$
1%
1!
#249500
0!
#250000
0$
0%
1!
#250200
0"
#250500
0!
#251000
0&
1!
#251200
1"
#251500
0!
#252000
1&
1$
1%
1!
#252500
0!
#253000
0$
0%
1!
#253200
0"
#253500
0!
#254000
0&
1!
#254200
1"
#254500
0!
#255000
1&
1$
1%
1!
#255500
0!
#256000
0$
0%
1!
#256200
0"
#256500
0!
#257000
0&
1!
#257200
1"
#257500
0!
#258000
1&
1$
1%
1!
#258500
0!
#259000
0$
0%
1!
#259200
0"
#259500
0!
#260000
0&
1!
#260200
1"
#260500
0!
#261000
1&
1$
1%
1!
#261500
0!
#262000
0$
0%
1!
#262200
0"
#262500
0!
#263000
0&
1!
#263200
1#
#263500
0!
#264000
1!
#264200
0#
#264500
0!
#265000
1!
#265200
1"
#265500
0!
#266000
1&
1$
1%
1!
#266500
0!
#267000
0$
0%
1!
#267200
0"
#267500
0!
#268000
0&
1!
#268200
1"
#268500
0!
#269000
1&
1$
1%
1!
#269500
0!
#270000
0$
0%
1!
#270200
0"
#270500
0!
#271000
0&
1!
#271200
1"
#271500
0!
#272000
1&
1$
1%
1!
#272500
0!
#273000
0$
0%
1!
#273200
0"
#273500
0!
#274000
0&
1!
#274200
1"
#274500
0!
#275000
1&
1$
1%
1!
#275500
0!
#276000
0$
0%
1!
#276200
0"
#276500
0!
#277000
0&
1!
#277200
1"
#277500
0!
#278000
1&
1$
1%
1!
#278500
0!
#279000
0$
0%
1!
#279200
0"
#279500
0!
#280000
0&
1!
#280200
1"
#280500
0!
#281000
1&
1$
1%
1!
#281500
0!
#282000
0$
0%
1!
#282200
0"
#282500
0!
#283000
0&
1!
#283200
1"
#283500
0!
#284000
1&
1$
1%
1!
#284500
0!
#285000
0$
0%
1!
#285200
0"
#285500
0!
#286000
0&
1!
#286200
1"
#286500
0!
#287000
1&
1$
1%
1!
#287500
0!
#288000
0$
0%
1!
#288200
0"
#288500
0!
#289000
0&
1!
#289200
1"
#289500
0!
#290000
1&
1$
1%
1!
#290500
0!
#291000
0$
0%
1!
#291200
0"
#291500
0!
#292000
0&
1!
#292200
1"
#292500
0!
#293000
1&
1$
1%
1!
#293500
0!
#294000
0$
0%
1!
#294200
0"
#294500
0!
#295000
0&
1!
#295200
1#
#295500
0!
#296000
1!
#296200
0#
#296500
0!
#297000
1!
#297200
1"
#297500
0!
#298000
1&
1$
1%
1!
#298500
0!
#299000
0$
0%
1!
#299200
0"
#299500
0!
#300000
0&
1!
#300200
1"
#300500
0!
#301000
1&
1$
1%
1!
#301500
0!
#302000
0$
0%
1!
#302200
0"
#302500
0!
#303000
0&
1!
#303200
1"
#303500
0!
#304000
1&
1$
1%
1!
#304500
0!
#305000
0$
0%
1!
#305200
0"
#305500
0!
#306000
0&
1!
#306200
1"
#306500
0!
#307000
1&
1$
1%
1!
#307500
0!
#308000
0$
0%
1!
#308200
0"
#308500
0!
#309000
0&
1!
#309200
1"
#309500
0!
#310000
1&
1$
1%
1!
#310500
0!
#311000
0$
0%
1!
#311200
0"
#311500
0!
#312000
0&
1!
#312200
1"
#312500
0!
#313000
1&
1$
1%
1!
#313500
0!
#314000
0$
0%
1!
#314200
0"
#314500
0!
#315000
0&
1!
#315200
1"
#315500
0!
#316000
1&
1$
1%
1!
#316500
0!
#317000
0$
0%
1!
#317200
0"
#317500
0!
#318000
0&
1!
#318200
1"
#318500
0!
#319000
1&
1$
1%
1!
#319500
0!
#320000
0$
0%
1!
#320200
0"
#320500
0!
#321000
0&
1!
#321200
1"
#321500
0!
#322000
1&
1$
1%
1!
#322500
0!
#323000
0$
0%
1!
#323200
0"
#323500
0!
#324000
0&
1!
#324200
1"
#324500
0!
#325000
1&
1$
1%
1!
#325500
0!
#326000
0$
0%
1!
#326200
0"
#326500
0!
#327000
0&
1!
#327200
1#
#327500
0!
#328000
1!
#328200
0#
