Lab2/cocotb/SinglePulserTB/waveform.vcd
$date
	Tue Jan 21 01:03:43 2025
$end
$version
	Icarus Verilog
$end
$timescale
	1ps
$end
$scope module SinglePulserTB $end
$var wire 1 ! Clk $end
$var wire 1 " DataIn $end
$var wire 1 # Reset $end
$var wire 1 $ DataOut $end
$scope module SinglePulserInst $end
$var wire 1 ! Clk $end
$var wire 1 " DataIn $end
$var wire 1 $ DataOut $end
$var wire 1 # Reset $end
$var reg 1 % dataOut $end
$var reg 1 & prev_DataIn $end
$upscope $end
$upscope $end
$enddefinitions $end
$comment Show the parameter values. $end
$dumpall
$end
#0
$dumpvars
0&
0%
0$
1#
0"
1!
$end
#500
0!
#1000
1!
#1500
0!
#2000
1!
#2400
0#
#2500
0!
#3000
1!
#3400
1"
#3500
0!
#4000
1&
1$
1%
1!
#4500
0!
#5000
0$
0%
1!
#5400
0"
#5500
0!
#6000
0&
1!
#6400
1"
#6500
0!
#7000
1&
1$
1%
1!
#7500
0!
#8000
0$
0%
1!
#8400
1#
#8500
0!
#9000
0&
1!
#9400
0"
0#
#9500
0!
#10000
1!
#10400
1"
#10500
0!
#11000
1&
1$
1%
1!
#11500
0!
#12000
0$
0%
1!
#12400
0"
#12500
0!
#13000
0&
1!
#13400
1"
#13500
0!
#14000
1&
1$
1%
1!
#14500
0!
#15000
0$
0%
1!
#15400
0"
#15500
0!
#16000
0&
1!
#16400
1"
#16500
0!
#17000
1&
1$
1%
1!
#17500
0!
#18000
0$
0%
1!
#18400
0"
#18500
0!
#19000
0&
1!
#19400
1"
#19500
0!
#20000
1&
1$
1%
1!
#20500
0!
#21000
0$
0%
1!
#21400
0"
#21500
0!
#22000
0&
1!
#22400
1"
#22500
0!
#23000
1&
1$
1%
1!
#23500
0!
#24000
0$
0%
1!
#24400
0"
#24500
0!
#25000
0&
1!
#25400
1"
#25500
0!
#26000
1&
1$
1%
1!
#26500
0!
#27000
0$
0%
1!
#27400
0"
#27500
0!
#28000
0&
1!
#28400
1"
#28500
0!
#29000
1&
1$
1%
1!
#29500
0!
#30000
0$
0%
1!
#30400
0"
#30500
0!
#31000
0&
1!
#31400
1"
#31500
0!
#32000
1&
1$
1%
1!
#32500
0!
#33000
0$
0%
1!
#33400
0"
#33500
0!
#34000
0&
1!
#34400
1"
#34500
0!
#35000
1&
1$
1%
1!
#35500
0!
#36000
0$
0%
1!
#36400
0"
#36500
0!
#37000
0&
1!
#37400
1"
#37500
0!
#38000
1&
1$
1%
1!
#38500
0!
#39000
0$
0%
1!
#39400
0"
#39500
0!
#40000
0&
1!
#40400
1#
#40500
0!
#41000
1!
#41400
0#
#41500
0!
#42000
1!
#42400
1"
#42500
0!
#43000
1&
1$
1%
1!
#43500
0!
#44000
0$
0%
1!
#44400
0"
#44500
0!
#45000
0&
1!
#45400
1"
#45500
0!
#46000
1&
1$
1%
1!
#46500
0!
#47000
0$
0%
1!
#47400
0"
#47500
0!
#48000
0&
1!
#48400
1"
#48500
0!
#49000
1&
1$
1%
1!
#49500
0!
#50000
0$
0%
1!
#50400
0"
#50500
0!
#51000
0&
1!
#51400
1"
#51500
0!
#52000
1&
1$
1%
1!
#52500
0!
#53000
0$
0%
1!
#53400
0"
#53500
0!
#54000
0&
1!
#54400
1"
#54500
0!
#55000
1&
1$
1%
1!
#55500
0!
#56000
0$
0%
1!
#56400
0"
#56500
0!
#57000
0&
1!
#57400
1"
#57500
0!
#58000
1&
1$
1%
1!
#58500
0!
#59000
0$
0%
1!
#59400
0"
#59500
0!
#60000
0&
1!
#60400
1"
#60500
0!
#61000
1&
1$
1%
1!
#61500
0!
#62000
0$
0%
1!
#62400
0"
#62500
0!
#63000
0&
1!
#63400
1"
#63500
0!
#64000
1&
1$
1%
1!
#64500
0!
#65000
0$
0%
1!
#65400
0"
#65500
0!
#66000
0&
1!
#66400
1"
#66500
0!
#67000
1&
1$
1%
1!
#67500
0!
#68000
0$
0%
1!
#68400
0"
#68500
0!
#69000
0&
1!
#69400
1"
#69500
0!
#70000
1&
1$
1%
1!
#70500
0!
#71000
0$
0%
1!
#71400
0"
#71500
0!
#72000
0&
1!
#72400
1#
#72500
0!
#73000
1!
#73400
0#
#73500
0!
#74000
1!
#74400
1"
#74500
0!
#75000
1&
1$
1%
1!
#75500
0!
#76000
0$
0%
1!
#76400
0"
#76500
0!
#77000
0&
1!
#77400
1"
#77500
0!
#78000
1&
1$
1%
1!
#78500
0!
#79000
0$
0%
1!
#79400
0"
#79500
0!
#80000
0&
1!
#80400
1"
#80500
0!
#81000
1&
1$
1%
1!
#81500
0!
#82000
0$
0%
1!
#82400
0"
#82500
0!
#83000
0&
1!
#83400
1"
#83500
0!
#84000
1&
1$
1%
1!
#84500
0!
#85000
0$
0%
1!
#85400
0"
#85500
0!
#86000
0&
1!
#86400
1"
#86500
0!
#87000
1&
1$
1%
1!
#87500
0!
#88000
0$
0%
1!
#88400
0"
#88500
0!
#89000
0&
1!
#89400
1"
#89500
0!
#90000
1&
1$
1%
1!
#90500
0!
#91000
0$
0%
1!
#91400
0"
#91500
0!
#92000
0&
1!
#92400
1"
#92500
0!
#93000
1&
1$
1%
1!
#93500
0!
#94000
0$
0%
1!
#94400
0"
#94500
0!
#95000
0&
1!
#95400
1"
#95500
0!
#96000
1&
1$
1%
1!
#96500
0!
#97000
0$
0%
1!
#97400
0"
#97500
0!
#98000
0&
1!
#98400
1"
#98500
0!
#99000
1&
1$
1%
1!
#99500
0!
#100000
0$
0%
1!
#100400
0"
#100500
0!
#101000
0&
1!
#101400
1"
#101500
0!
#102000
1&
1$
1%
1!
#102500
0!
#103000
0$
0%
1!
#103400
0"
#103500
0!
#104000
0&
1!
#104400
1#
#104500
0!
#105000
1!
#105400
0#
#105500
0!
#106000
1!
#106400
1"
#106500
0!
#107000
1&
1$
1%
1!
#107500
0!
#108000
0$
0%
1!
#108400
0"
#108500
0!
#109000
0&
1!
#109400
1"
#109500
0!
#110000
1&
1$
1%
1!
#110500
0!
#111000
0$
0%
1!
#111400
0"
#111500
0!
#112000
0&
1!
#112400
1"
#112500
0!
#113000
1&
1$
1%
1!
#113500
0!
#114000
0$
0%
1!
#114400
0"
#114500
0!
#115000
0&
1!
#115400
1"
#115500
0!
#116000
1&
1$
1%
1!
#116500
0!
#117000
0$
0%
1!
#117400
0"
#117500
0!
#118000
0&
1!
#118400
1"
#118500
0!
#119000
1&
1$
1%
1!
#119500
0!
#120000
0$
0%
1!
#120400
0"
#120500
0!
#121000
0&
1!
#121400
1"
#121500
0!
#122000
1&
1$
1%
1!
#122500
0!
#123000
0$
0%
1!
#123400
0"
#123500
0!
#124000
0&
1!
#124400
1"
#124500
0!
#125000
1&
1$
1%
1!
#125500
0!
#126000
0$
0%
1!
#126400
0"
#126500
0!
#127000
0&
1!
#127400
1"
#127500
0!
#128000
1&
1$
1%
1!
#128500
0!
#129000
0$
0%
1!
#129400
0"
#129500
0!
#130000
0&
1!
#130400
1"
#130500
0!
#131000
1&
1$
1%
1!
#131500
0!
#132000
0$
0%
1!
#132400
0"
#132500
0!
#133000
0&
1!
#133400
1"
#133500
0!
#134000
1&
1$
1%
1!
#134500
0!
#135000
0$
0%
1!
#135400
0"
#135500
0!
#136000
0&
1!
#136400
1#
#136500
0!
#137000
1!
#137400
0#
#137500
0!
#138000
1!
#138400
1"
#138500
0!
#139000
1&
1$
1%
1!
#139500
0!
#140000
0$
0%
1!
#140400
0"
#140500
0!
#141000
0&
1!
#141400
1"
#141500
0!
#142000
1&
1$
1%
1!
#142500
0!
#143000
0$
0%
1!
#143400
0"
#143500
0!
#144000
0&
1!
#144400
1"
#144500
0!
#145000
1&
1$
1%
1!
#145500
0!
#146000
0$
0%
1!
#146400
0"
#146500
0!
#147000
0&
1!
#147400
1"
#147500
0!
#148000
1&
1$
1%
1!
#148500
0!
#149000
0$
0%
1!
#149400
0"
#149500
0!
#150000
0&
1!
#150400
1"
#150500
0!
#151000
1&
1$
1%
1!
#151500
0!
#152000
0$
0%
1!
#152400
0"
#152500
0!
#153000
0&
1!
#153400
1"
#153500
0!
#154000
1&
1$
1%
1!
#154500
0!
#155000
0$
0%
1!
#155400
0"
#155500
0!
#156000
0&
1!
#156400
1"
#156500
0!
#157000
1&
1$
1%
1!
#157500
0!
#158000
0$
0%
1!
#158400
0"
#158500
0!
#159000
0&
1!
#159400
1"
#159500
0!
#160000
1&
1$
1%
1!
#160500
0!
#161000
0$
0%
1!
#161400
0"
#161500
0!
#162000
0&
1!
#162400
1"
#162500
0!
#163000
1&
1$
1%
1!
#163500
0!
#164000
0$
0%
1!
#164400
0"
#164500
0!
#165000
0&
1!
#165400
1"
#165500
0!
#166000
1&
1$
1%
1!
#166500
0!
#167000
0$
0%
1!
#167400
0"
#167500
0!
#168000
0&
1!
#168400
1#
#168500
0!
#169000
1!
#169400
0#
#169500
0!
#170000
1!
#170400
1"
#170500
0!
#171000
1&
1$
1%
1!
#171500
0!
#172000
0$
0%
1!
#172400
0"
#172500
0!
#173000
0&
1!
#173400
1"
#173500
0!
#174000
1&
1$
1%
1!
#174500
0!
#175000
0$
0%
1!
#175400
0"
#175500
0!
#176000
0&
1!
#176400
1"
#176500
0!
#177000
1&
1$
1%
1!
#177500
0!
#178000
0$
0%
1!
#178400
0"
#178500
0!
#179000
0&
1!
#179400
1"
#179500
0!
#180000
1&
1$
1%
1!
#180500
0!
#181000
0$
0%
1!
#181400
0"
#181500
0!
#182000
0&
1!
#182400
1"
#182500
0!
#183000
1&
1$
1%
1!
#183500
0!
#184000
0$
0%
1!
#184400
0"
#184500
0!
#185000
0&
1!
#185400
1"
#185500
0!
#186000
1&
1$
1%
1!
#186500
0!
#187000
0$
0%
1!
#187400
0"
#187500
0!
#188000
0&
1!
#188400
1"
#188500
0!
#189000
1&
1$
1%
1!
#189500
0!
#190000
0$
0%
1!
#190400
0"
#190500
0!
#191000
0&
1!
#191400
1"
#191500
0!
#192000
1&
1$
1%
1!
#192500
0!
#193000
0$
0%
1!
#193400
0"
#193500
0!
#194000
0&
1!
#194400
1"
#194500
0!
#195000
1&
1$
1%
1!
#195500
0!
#196000
0$
0%
1!
#196400
0"
#196500
0!
#197000
0&
1!
#197400
1"
#197500
0!
#198000
1&
1$
1%
1!
#198500
0!
#199000
0$
0%
1!
#199400
0"
#199500
0!
#200000
0&
1!
#200400
1#
#200500
0!
#201000
1!
#201400
0#
#201500
0!
#202000
1!
#202400
1"
#202500
0!
#203000
1&
1$
1%
1!
#203500
0!
#204000
0$
0%
1!
#204400
0"
#204500
0!
#205000
0&
1!
#205400
1"
#205500
0!
#206000
1&
1$
1%
1!
#206500
0!
#207000
0$
0%
1!
#207400
0"
#207500
0!
#208000
0&
1!
#208400
1"
#208500
0!
#209000
1&
1$
1%
1!
#209500
0!
#210000
0$
0%
1!
#210400
0"
#210500
0!
#211000
0&
1!
#211400
1"
#211500
0!
#212000
1&
1$
1%
1!
#212500
0!
#213000
0$
0%
1!
#213400
0"
#213500
0!
#214000
0&
1!
#214400
1"
#214500
0!
#215000
1&
1$
1%
1!
#215500
0!
#216000
0$
0%
1!
#216400
0"
#216500
0!
#217000
0&
1!
#217400
1"
#217500
0!
#218000
1&
1$
1%
1!
#218500
0!
#219000
0$
0%
1!
#219400
0"
#219500
0!
#220000
0&
1!
#220400
1"
#220500
0!
#221000
1&
1$
1%
1!
#221500
0!
#222000
0$
0%
1!
#222400
0"
#222500
0!
#223000
0&
1!
#223400
1"
#223500
0!
#224000
1&
1$
1%
1!
#224500
0!
#225000
0$
0%
1!
#225400
0"
#225500
0!
#226000
0&
1!
#226400
1"
#226500
0!
#227000
1&
1$
1%
1!
#227500
0!
#228000
0$
0%
1!
#228400
0"
#228500
0!
#229000
0&
1!
#229400
1"
#229500
0!
#230000
1&
1$
1%
1!
#230500
0!
#231000
0$
0%
1!
#231400
0"
#231500
0!
#232000
0&
1!
#232400
1#
#232500
0!
#233000
1!
#233400
0#
#233500
0!
#234000
1!
#234400
1"
#234500
0!
#235000
1&
1$
1%
1!
#235500
0!
#236000
0$
0%
1!
#236400
0"
#236500
0!
#237000
0&
1!
#237400
1"
#237500
0!
#238000
1&
1$
1%
1!
#238500
0!
#239000
0$
0%
1!
#239400
0"
#239500
0!
#240000
0&
1!
#240400
1"
#240500
0!
#241000
1&
1$
1%
1!
#241500
0!
#242000
0$
0%
1!
#242400
0"
#242500
0!
#243000
0&
1!
#243400
1"
#243500
0!
#244000
1&
1$
1%
1!
#244500
0!
#245000
0$
0%
1!
#245400
0"
#245500
0!
#246000
0&
1!
#246400
1"
#246500
0!
#247000
1&
1$
1%
1!
#247500
0!
#248000
0$
0%
1!
#248400
0"
#248500
0!
#249000
0&
1!
#249400
1"
#249500
0!
#250000
1&
1$
1%
1!
#250500
0!
#251000
0$
0%
1!
#251400
0"
#251500
0!
#252000
0&
1!
#252400
1"
#252500
0!
#253000
1&
1$
1%
1!
#253500
0!
#254000
0$
0%
1!
#254400
0"
#254500
0!
#255000
0&
1!
#255400
1"
#255500
0!
#256000
1&
1$
1%
1!
#256500
0!
#257000
0$
0%
1!
#257400
0"
#257500
0!
#258000
0&
1!
#258400
1"
#258500
0!
#259000
1&
1$
1%
1!
#259500
0!
#260000
0$
0%
1!
#260400
0"
#260500
0!
#261000
0&
1!
#261400
1"
#261500
0!
#262000
1&
1$
1%
1!
#262500
0!
#263000
0$
0%
1!
#263400
0"
#263500
0!
#264000
0&
1!
#264400
1#
#264500
0!
#265000
1!
#265400
0#
#265500
0!
#266000
1!
#266400
1"
#266500
0!
#267000
1&
1$
1%
1!
#267500
0!
#268000
0$
0%
1!
#268400
0"
#268500
0!
#269000
0&
1!
#269400
1"
#269500
0!
#270000
1&
1$
1%
1!
#270500
0!
#271000
0$
0%
1!
#271400
0"
#271500
0!
#272000
0&
1!
#272400
1"
#272500
0!
#273000
1&
1$
1%
1!
#273500
0!
#274000
0$
0%
1!
#274400
0"
#274500
0!
#275000
0&
1!
#275400
1"
#275500
0!
#276000
1&
1$
1%
1!
#276500
0!
#277000
0$
0%
1!
#277400
0"
#277500
0!
#278000
0&
1!
#278400
1"
#278500
0!
#279000
1&
1$
1%
1!
#279500
0!
#280000
0$
0%
1!
#280400
0"
#280500
0!
#281000
0&
1!
#281400
1"
#281500
0!
#282000
1&
1$
1%
1!
#282500
0!
#283000
0$
0%
1!
#283400
0"
#283500
0!
#284000
0&
1!
#284400
1"
#284500
0!
#285000
1&
1$
1%
1!
#285500
0!
#286000
0$
0%
1!
#286400
0"
#286500
0!
#287000
0&
1!
#287400
1"
#287500
0!
#288000
1&
1$
1%
1!
#288500
0!
#289000
0$
0%
1!
#289400
0"
#289500
0!
#290000
0&
1!
#290400
1"
#290500
0!
#291000
1&
1$
1%
1!
#291500
0!
#292000
0$
0%
1!
#292400
0"
#292500
0!
#293000
0&
1!
#293400
1"
#293500
0!
#294000
1&
1$
1%
1!
#294500
0!
#295000
0$
0%
1!
#295400
0"
#295500
0!
#296000
0&
1!
#296400
1#
#296500
0!
#297000
1!
#297400
0#
#297500
0!
#298000
1!
#298400
1"
#298500
0!
#299000
1&
1$
1%
1!
#299500
0!
#300000
0$
0%
1!
#300400
0"
#300500
0!
#301000
0&
1!
#301400
1"
#301500
0!
#302000
1&
1$
1%
1!
#302500
0!
#303000
0$
0%
1!
#303400
0"
#303500
0!
#304000
0&
1!
#304400
1"
#304500
0!
#305000
1&
1$
1%
1!
#305500
0!
#306000
0$
0%
1!
#306400
0"
#306500
0!
#307000
0&
1!
#307400
1"
#307500
0!
#308000
1&
1$
1%
1!
#308500
0!
#309000
0$
0%
1!
#309400
0"
#309500
0!
#310000
0&
1!
#310400
1"
#310500
0!
#311000
1&
1$
1%
1!
#311500
0!
#312000
0$
0%
1!
#312400
0"
#312500
0!
#313000
0&
1!
#313400
1"
#313500
0!
#314000
1&
1$
1%
1!
#314500
0!
#315000
0$
0%
1!
#315400
0"
#315500
0!
#316000
0&
1!
#316400
1"
#316500
0!
#317000
1&
1$
1%
1!
#317500
0!
#318000
0$
0%
1!
#318400
0"
#318500
0!
#319000
0&
1!
#319400
1"
#319500
0!
#320000
1&
1$
1%
1!
#320500
0!
#321000
0$
0%
1!
#321400
0"
#321500
0!
#322000
0&
1!
#322400
1"
#322500
0!
#323000
1&
1$
1%
1!
#323500
0!
#324000
0$
0%
1!
#324400
0"
#324500
0!
#325000
0&
1!
#325400
1"
#325500
0!
#326000
1&
1$
1%
1!
#326500
0!
#327000
0$
0%
1!
#327400
0"
#327500
0!
#328000
0&
1!
#328400
1#
#328500
0!
#329000
1!
#329400
0#
