Lab2/cocotb/SevenSegmentDisplayTB/waveform.vcd
$date
	Mon Jan 27 23:52:04 2025
$end
$version
	Icarus Verilog
$end
$timescale
	1ps
$end
$scope module SevenSegmentDisplayTB $end
$var wire 1 ! Clk $end
$var wire 16 " DataIn [15:0] $end
$var wire 1 # Reset $end
$var wire 8 $ Segments [7:0] $end
$var wire 4 % AN [3:0] $end
$scope module SevenSegmentDisplayInst $end
$var wire 1 ! Clk $end
$var wire 16 & DataIn [15:0] $end
$var wire 1 # Reset $end
$var wire 2 ' selector [1:0] $end
$var wire 4 ( dataOut [3:0] $end
$var wire 8 ) Segments [7:0] $end
$var wire 4 * AN [3:0] $end
$var parameter 32 + ControllerClockCycle $end
$var parameter 32 , ControllerCounterWidth $end
$scope module Multi $end
$var wire 16 - DataIn [15:0] $end
$var wire 2 . Selector [1:0] $end
$var wire 4 / DataOut [3:0] $end
$upscope $end
$scope module SevenControl $end
$var wire 4 0 AN [3:0] $end
$var wire 1 ! Clk $end
$var wire 1 # Reset $end
$var wire 2 1 Selector [1:0] $end
$var parameter 32 2 ControllerClockCycle $end
$var parameter 32 3 ControllerCounterWidth $end
$var reg 10 4 Counter [9:0] $end
$var reg 4 5 an [3:0] $end
$var reg 2 6 selector [1:0] $end
$upscope $end
$scope module SevenDecode $end
$var wire 4 7 DataIn [3:0] $end
$var wire 8 8 Segments [7:0] $end
$var reg 8 9 segments [7:0] $end
$upscope $end
$upscope $end
$upscope $end
$enddefinitions $end
$comment Show the parameter values. $end
$dumpall
b1010 3
b1100100 2
b1010 ,
b1100100 +
$end
#0
$dumpvars
b11 9
b11 8
b0 7
bx 6
bx 5
b1 4
bx 1
bx 0
b0 /
bx .
b0 -
bx *
b11 )
b0 (
bx '
b0 &
bx %
b11 $
0#
b0 "
1!
$end
#500
0!
#1000
b10 4
1!
#1200
1#
#1500
0!
#2000
b1111 %
b1111 *
b1111 0
b1111 5
b0 '
b0 .
b0 1
b0 6
b0 4
1!
#2200
0#
#2500
0!
#3000
b1110 %
b1110 *
b1110 0
b1110 5
b1 4
1!
#3500
0!
#4000
b10 4
1!
#4500
0!
#5000
b11 4
1!
#5200
b10011111 $
b10011111 )
b10011111 8
b10011111 9
b1 (
b1 /
b1 7
b1 "
b1 &
b1 -
#5500
0!
#6000
b100 4
1!
#6500
0!
#7000
b101 4
1!
#7200
b100101 $
b100101 )
b100101 8
b100101 9
b10 (
b10 /
b10 7
b10 "
b10 &
b10 -
#7500
0!
#8000
b110 4
1!
#8500
0!
#9000
b111 4
1!
#9200
b1101 $
b1101 )
b1101 8
b1101 9
b11 (
b11 /
b11 7
b11 "
b11 &
b11 -
#9500
0!
#10000
b1000 4
1!
#10500
0!
#11000
b1001 4
1!
#11200
b10011001 $
b10011001 )
b10011001 8
b10011001 9
b100 (
b100 /
b100 7
b100 "
b100 &
b100 -
#11500
0!
#12000
b1010 4
1!
#12500
0!
#13000
b1011 4
1!
#13200
b1001001 $
b1001001 )
b1001001 8
b1001001 9
b101 (
b101 /
b101 7
b101 "
b101 &
b101 -
#13500
0!
#14000
b1100 4
1!
#14500
0!
#15000
b1101 4
1!
#15200
b1000001 $
b1000001 )
b1000001 8
b1000001 9
b110 (
b110 /
b110 7
b110 "
b110 &
b110 -
#15500
0!
#16000
b1110 4
1!
#16500
0!
#17000
b1111 4
1!
#17200
b11111 $
b11111 )
b11111 8
b11111 9
b111 (
b111 /
b111 7
b111 "
b111 &
b111 -
#17500
0!
#18000
b10000 4
1!
#18500
0!
#19000
b10001 4
1!
#19200
b1 $
b1 )
b1 8
b1 9
b1000 (
b1000 /
b1000 7
b1000 "
b1000 &
b1000 -
#19500
0!
#20000
b10010 4
1!
#20500
0!
#21000
b10011 4
1!
#21200
b1001 $
b1001 )
b1001 8
b1001 9
b1001 (
b1001 /
b1001 7
b1001 "
b1001 &
b1001 -
#21500
0!
#22000
b10100 4
1!
#22500
0!
#23000
b10101 4
1!
#23200
b10001 $
b10001 )
b10001 8
b10001 9
b1010 (
b1010 /
b1010 7
b1010 "
b1010 &
b1010 -
#23500
0!
#24000
b10110 4
1!
#24500
0!
#25000
b10111 4
1!
#25200
b11000001 $
b11000001 )
b11000001 8
b11000001 9
b1011 (
b1011 /
b1011 7
b1011 "
b1011 &
b1011 -
#25500
0!
#26000
b11000 4
1!
#26500
0!
#27000
b11001 4
1!
#27200
b1100011 $
b1100011 )
b1100011 8
b1100011 9
b1100 (
b1100 /
b1100 7
b1100 "
b1100 &
b1100 -
#27500
0!
#28000
b11010 4
1!
#28500
0!
#29000
b11011 4
1!
#29200
b10000101 $
b10000101 )
b10000101 8
b10000101 9
b1101 (
b1101 /
b1101 7
b1101 "
b1101 &
b1101 -
#29500
0!
#30000
b11100 4
1!
#30500
0!
#31000
b11101 4
1!
#31200
b1100001 $
b1100001 )
b1100001 8
b1100001 9
b1110 (
b1110 /
b1110 7
b1110 "
b1110 &
b1110 -
#31500
0!
#32000
b11110 4
1!
#32500
0!
#33000
b11111 4
1!
#33200
b1110001 $
b1110001 )
b1110001 8
b1110001 9
b1111 (
b1111 /
b1111 7
b1111 "
b1111 &
b1111 -
#33500
0!
#34000
b100000 4
1!
#34500
0!
#35000
b100001 4
1!
#35500
0!
#36000
b100010 4
1!
#36500
0!
#37000
b100011 4
1!
#37500
0!
#38000
b100100 4
1!
#38500
0!
#39000
b100101 4
1!
#39500
0!
#40000
b100110 4
1!
#40500
0!
#41000
b100111 4
1!
#41500
0!
#42000
b101000 4
1!
#42500
0!
#43000
b101001 4
1!
#43500
0!
#44000
b101010 4
1!
#44500
0!
#45000
b101011 4
1!
#45500
0!
#46000
b101100 4
1!
#46500
0!
#47000
b101101 4
1!
#47500
0!
#48000
b101110 4
1!
#48500
0!
#49000
b101111 4
1!
#49500
0!
#50000
b110000 4
1!
#50500
0!
#51000
b110001 4
1!
#51500
0!
#52000
b110010 4
1!
#52500
0!
#53000
b110011 4
1!
#53500
0!
#54000
b110100 4
1!
#54500
0!
#55000
b110101 4
1!
#55500
0!
#56000
b110110 4
1!
#56500
0!
#57000
b110111 4
1!
#57500
0!
#58000
b111000 4
1!
#58500
0!
#59000
b111001 4
1!
#59500
0!
#60000
b111010 4
1!
#60500
0!
#61000
b111011 4
1!
#61500
0!
#62000
b111100 4
1!
#62500
0!
#63000
b111101 4
1!
#63500
0!
#64000
b111110 4
1!
#64500
0!
#65000
b111111 4
1!
#65500
0!
#66000
b1000000 4
1!
#66500
0!
#67000
b1000001 4
1!
#67500
0!
#68000
b1000010 4
1!
#68500
0!
#69000
b1000011 4
1!
#69500
0!
#70000
b1000100 4
1!
#70500
0!
#71000
b1000101 4
1!
#71500
0!
#72000
b1000110 4
1!
#72500
0!
#73000
b1000111 4
1!
#73500
0!
#74000
b1001000 4
1!
#74500
0!
#75000
b1001001 4
1!
#75500
0!
#76000
b1001010 4
1!
#76500
0!
#77000
b1001011 4
1!
#77500
0!
#78000
b1001100 4
1!
#78500
0!
#79000
b1001101 4
1!
#79500
0!
#80000
b1001110 4
1!
#80500
0!
#81000
b1001111 4
1!
#81500
0!
#82000
b1010000 4
1!
#82500
0!
#83000
b1010001 4
1!
#83500
0!
#84000
b1010010 4
1!
#84500
0!
#85000
b1010011 4
1!
#85500
0!
#86000
b1010100 4
1!
#86500
0!
#87000
b1010101 4
1!
#87500
0!
#88000
b1010110 4
1!
#88500
0!
#89000
b1010111 4
1!
#89500
0!
#90000
b1011000 4
1!
#90500
0!
#91000
b1011001 4
1!
#91500
0!
#92000
b1011010 4
1!
#92500
0!
#93000
b1011011 4
1!
#93500
0!
#94000
b1011100 4
1!
#94500
0!
#95000
b1011101 4
1!
#95500
0!
#96000
b1011110 4
1!
#96500
0!
#97000
b1011111 4
1!
#97500
0!
#98000
b1100000 4
1!
#98500
0!
#99000
b1100001 4
1!
#99500
0!
#100000
b1100010 4
1!
#100500
0!
#101000
b1100011 4
1!
#101500
0!
#102000
b11 $
b11 )
b11 8
b11 9
b0 (
b0 /
b0 7
b1101 %
b1101 *
b1101 0
b1101 5
b1 '
b1 .
b1 1
b1 6
b0 4
1!
#102500
0!
#103000
b1 4
1!
#103500
0!
#104000
b10 4
1!
#104500
0!
#105000
b11 4
1!
#105200
b0 "
b0 &
b0 -
#105500
0!
#106000
b100 4
1!
#106500
0!
#107000
b101 4
1!
#107200
b10011111 $
b10011111 )
b10011111 8
b10011111 9
b1 (
b1 /
b1 7
b10000 "
b10000 &
b10000 -
#107500
0!
#108000
b110 4
1!
#108500
0!
#109000
b111 4
1!
#109200
b100101 $
b100101 )
b100101 8
b100101 9
b10 (
b10 /
b10 7
b100000 "
b100000 &
b100000 -
#109500
0!
#110000
b1000 4
1!
#110500
0!
#111000
b1001 4
1!
#111200
b1101 $
b1101 )
b1101 8
b1101 9
b11 (
b11 /
b11 7
b110000 "
b110000 &
b110000 -
#111500
0!
#112000
b1010 4
1!
#112500
0!
#113000
b1011 4
1!
#113200
b10011001 $
b10011001 )
b10011001 8
b10011001 9
b100 (
b100 /
b100 7
b1000000 "
b1000000 &
b1000000 -
#113500
0!
#114000
b1100 4
1!
#114500
0!
#115000
b1101 4
1!
#115200
b1001001 $
b1001001 )
b1001001 8
b1001001 9
b101 (
b101 /
b101 7
b1010000 "
b1010000 &
b1010000 -
#115500
0!
#116000
b1110 4
1!
#116500
0!
#117000
b1111 4
1!
#117200
b1000001 $
b1000001 )
b1000001 8
b1000001 9
b110 (
b110 /
b110 7
b1100000 "
b1100000 &
b1100000 -
#117500
0!
#118000
b10000 4
1!
#118500
0!
#119000
b10001 4
1!
#119200
b11111 $
b11111 )
b11111 8
b11111 9
b111 (
b111 /
b111 7
b1110000 "
b1110000 &
b1110000 -
#119500
0!
#120000
b10010 4
1!
#120500
0!
#121000
b10011 4
1!
#121200
b1 $
b1 )
b1 8
b1 9
b1000 (
b1000 /
b1000 7
b10000000 "
b10000000 &
b10000000 -
#121500
0!
#122000
b10100 4
1!
#122500
0!
#123000
b10101 4
1!
#123200
b1001 $
b1001 )
b1001 8
b1001 9
b1001 (
b1001 /
b1001 7
b10010000 "
b10010000 &
b10010000 -
#123500
0!
#124000
b10110 4
1!
#124500
0!
#125000
b10111 4
1!
#125200
b10001 $
b10001 )
b10001 8
b10001 9
b1010 (
b1010 /
b1010 7
b10100000 "
b10100000 &
b10100000 -
#125500
0!
#126000
b11000 4
1!
#126500
0!
#127000
b11001 4
1!
#127200
b11000001 $
b11000001 )
b11000001 8
b11000001 9
b1011 (
b1011 /
b1011 7
b10110000 "
b10110000 &
b10110000 -
#127500
0!
#128000
b11010 4
1!
#128500
0!
#129000
b11011 4
1!
#129200
b1100011 $
b1100011 )
b1100011 8
b1100011 9
b1100 (
b1100 /
b1100 7
b11000000 "
b11000000 &
b11000000 -
#129500
0!
#130000
b11100 4
1!
#130500
0!
#131000
b11101 4
1!
#131200
b10000101 $
b10000101 )
b10000101 8
b10000101 9
b1101 (
b1101 /
b1101 7
b11010000 "
b11010000 &
b11010000 -
#131500
0!
#132000
b11110 4
1!
#132500
0!
#133000
b11111 4
1!
#133200
b1100001 $
b1100001 )
b1100001 8
b1100001 9
b1110 (
b1110 /
b1110 7
b11100000 "
b11100000 &
b11100000 -
#133500
0!
#134000
b100000 4
1!
#134500
0!
#135000
b100001 4
1!
#135200
b1110001 $
b1110001 )
b1110001 8
b1110001 9
b1111 (
b1111 /
b1111 7
b11110000 "
b11110000 &
b11110000 -
#135500
0!
#136000
b100010 4
1!
#136500
0!
#137000
b100011 4
1!
#137500
0!
#138000
b100100 4
1!
#138500
0!
#139000
b100101 4
1!
#139500
0!
#140000
b100110 4
1!
#140500
0!
#141000
b100111 4
1!
#141500
0!
#142000
b101000 4
1!
#142500
0!
#143000
b101001 4
1!
#143500
0!
#144000
b101010 4
1!
#144500
0!
#145000
b101011 4
1!
#145500
0!
#146000
b101100 4
1!
#146500
0!
#147000
b101101 4
1!
#147500
0!
#148000
b101110 4
1!
#148500
0!
#149000
b101111 4
1!
#149500
0!
#150000
b110000 4
1!
#150500
0!
#151000
b110001 4
1!
#151500
0!
#152000
b110010 4
1!
#152500
0!
#153000
b110011 4
1!
#153500
0!
#154000
b110100 4
1!
#154500
0!
#155000
b110101 4
1!
#155500
0!
#156000
b110110 4
1!
#156500
0!
#157000
b110111 4
1!
#157500
0!
#158000
b111000 4
1!
#158500
0!
#159000
b111001 4
1!
#159500
0!
#160000
b111010 4
1!
#160500
0!
#161000
b111011 4
1!
#161500
0!
#162000
b111100 4
1!
#162500
0!
#163000
b111101 4
1!
#163500
0!
#164000
b111110 4
1!
#164500
0!
#165000
b111111 4
1!
#165500
0!
#166000
b1000000 4
1!
#166500
0!
#167000
b1000001 4
1!
#167500
0!
#168000
b1000010 4
1!
#168500
0!
#169000
b1000011 4
1!
#169500
0!
#170000
b1000100 4
1!
#170500
0!
#171000
b1000101 4
1!
#171500
0!
#172000
b1000110 4
1!
#172500
0!
#173000
b1000111 4
1!
#173500
0!
#174000
b1001000 4
1!
#174500
0!
#175000
b1001001 4
1!
#175500
0!
#176000
b1001010 4
1!
#176500
0!
#177000
b1001011 4
1!
#177500
0!
#178000
b1001100 4
1!
#178500
0!
#179000
b1001101 4
1!
#179500
0!
#180000
b1001110 4
1!
#180500
0!
#181000
b1001111 4
1!
#181500
0!
#182000
b1010000 4
1!
#182500
0!
#183000
b1010001 4
1!
#183500
0!
#184000
b1010010 4
1!
#184500
0!
#185000
b1010011 4
1!
#185500
0!
#186000
b1010100 4
1!
#186500
0!
#187000
b1010101 4
1!
#187500
0!
#188000
b1010110 4
1!
#188500
0!
#189000
b1010111 4
1!
#189500
0!
#190000
b1011000 4
1!
#190500
0!
#191000
b1011001 4
1!
#191500
0!
#192000
b1011010 4
1!
#192500
0!
#193000
b1011011 4
1!
#193500
0!
#194000
b1011100 4
1!
#194500
0!
#195000
b1011101 4
1!
#195500
0!
#196000
b1011110 4
1!
#196500
0!
#197000
b1011111 4
1!
#197500
0!
#198000
b1100000 4
1!
#198500
0!
#199000
b1100001 4
1!
#199500
0!
#200000
b1100010 4
1!
#200500
0!
#201000
b1100011 4
1!
#201500
0!
#202000
b11 $
b11 )
b11 8
b11 9
b0 (
b0 /
b0 7
b1011 %
b1011 *
b1011 0
b1011 5
b10 '
b10 .
b10 1
b10 6
b0 4
1!
#202500
0!
#203000
b1 4
1!
#203500
0!
#204000
b10 4
1!
#204500
0!
#205000
b11 4
1!
#205500
0!
#206000
b100 4
1!
#206500
0!
#207000
b101 4
1!
#207200
b0 "
b0 &
b0 -
#207500
0!
#208000
b110 4
1!
#208500
0!
#209000
b111 4
1!
#209200
b10011111 $
b10011111 )
b10011111 8
b10011111 9
b1 (
b1 /
b1 7
b100000000 "
b100000000 &
b100000000 -
#209500
0!
#210000
b1000 4
1!
#210500
0!
#211000
b1001 4
1!
#211200
b100101 $
b100101 )
b100101 8
b100101 9
b10 (
b10 /
b10 7
b1000000000 "
b1000000000 &
b1000000000 -
#211500
0!
#212000
b1010 4
1!
#212500
0!
#213000
b1011 4
1!
#213200
b1101 $
b1101 )
b1101 8
b1101 9
b11 (
b11 /
b11 7
b1100000000 "
b1100000000 &
b1100000000 -
#213500
0!
#214000
b1100 4
1!
#214500
0!
#215000
b1101 4
1!
#215200
b10011001 $
b10011001 )
b10011001 8
b10011001 9
b100 (
b100 /
b100 7
b10000000000 "
b10000000000 &
b10000000000 -
#215500
0!
#216000
b1110 4
1!
#216500
0!
#217000
b1111 4
1!
#217200
b1001001 $
b1001001 )
b1001001 8
b1001001 9
b101 (
b101 /
b101 7
b10100000000 "
b10100000000 &
b10100000000 -
#217500
0!
#218000
b10000 4
1!
#218500
0!
#219000
b10001 4
1!
#219200
b1000001 $
b1000001 )
b1000001 8
b1000001 9
b110 (
b110 /
b110 7
b11000000000 "
b11000000000 &
b11000000000 -
#219500
0!
#220000
b10010 4
1!
#220500
0!
#221000
b10011 4
1!
#221200
b11111 $
b11111 )
b11111 8
b11111 9
b111 (
b111 /
b111 7
b11100000000 "
b11100000000 &
b11100000000 -
#221500
0!
#222000
b10100 4
1!
#222500
0!
#223000
b10101 4
1!
#223200
b1 $
b1 )
b1 8
b1 9
b1000 (
b1000 /
b1000 7
b100000000000 "
b100000000000 &
b100000000000 -
#223500
0!
#224000
b10110 4
1!
#224500
0!
#225000
b10111 4
1!
#225200
b1001 $
b1001 )
b1001 8
b1001 9
b1001 (
b1001 /
b1001 7
b100100000000 "
b100100000000 &
b100100000000 -
#225500
0!
#226000
b11000 4
1!
#226500
0!
#227000
b11001 4
1!
#227200
b10001 $
b10001 )
b10001 8
b10001 9
b1010 (
b1010 /
b1010 7
b101000000000 "
b101000000000 &
b101000000000 -
#227500
0!
#228000
b11010 4
1!
#228500
0!
#229000
b11011 4
1!
#229200
b11000001 $
b11000001 )
b11000001 8
b11000001 9
b1011 (
b1011 /
b1011 7
b101100000000 "
b101100000000 &
b101100000000 -
#229500
0!
#230000
b11100 4
1!
#230500
0!
#231000
b11101 4
1!
#231200
b1100011 $
b1100011 )
b1100011 8
b1100011 9
b1100 (
b1100 /
b1100 7
b110000000000 "
b110000000000 &
b110000000000 -
#231500
0!
#232000
b11110 4
1!
#232500
0!
#233000
b11111 4
1!
#233200
b10000101 $
b10000101 )
b10000101 8
b10000101 9
b1101 (
b1101 /
b1101 7
b110100000000 "
b110100000000 &
b110100000000 -
#233500
0!
#234000
b100000 4
1!
#234500
0!
#235000
b100001 4
1!
#235200
b1100001 $
b1100001 )
b1100001 8
b1100001 9
b1110 (
b1110 /
b1110 7
b111000000000 "
b111000000000 &
b111000000000 -
#235500
0!
#236000
b100010 4
1!
#236500
0!
#237000
b100011 4
1!
#237200
b1110001 $
b1110001 )
b1110001 8
b1110001 9
b1111 (
b1111 /
b1111 7
b111100000000 "
b111100000000 &
b111100000000 -
#237500
0!
#238000
b100100 4
1!
#238500
0!
#239000
b100101 4
1!
#239500
0!
#240000
b100110 4
1!
#240500
0!
#241000
b100111 4
1!
#241500
0!
#242000
b101000 4
1!
#242500
0!
#243000
b101001 4
1!
#243500
0!
#244000
b101010 4
1!
#244500
0!
#245000
b101011 4
1!
#245500
0!
#246000
b101100 4
1!
#246500
0!
#247000
b101101 4
1!
#247500
0!
#248000
b101110 4
1!
#248500
0!
#249000
b101111 4
1!
#249500
0!
#250000
b110000 4
1!
#250500
0!
#251000
b110001 4
1!
#251500
0!
#252000
b110010 4
1!
#252500
0!
#253000
b110011 4
1!
#253500
0!
#254000
b110100 4
1!
#254500
0!
#255000
b110101 4
1!
#255500
0!
#256000
b110110 4
1!
#256500
0!
#257000
b110111 4
1!
#257500
0!
#258000
b111000 4
1!
#258500
0!
#259000
b111001 4
1!
#259500
0!
#260000
b111010 4
1!
#260500
0!
#261000
b111011 4
1!
#261500
0!
#262000
b111100 4
1!
#262500
0!
#263000
b111101 4
1!
#263500
0!
#264000
b111110 4
1!
#264500
0!
#265000
b111111 4
1!
#265500
0!
#266000
b1000000 4
1!
#266500
0!
#267000
b1000001 4
1!
#267500
0!
#268000
b1000010 4
1!
#268500
0!
#269000
b1000011 4
1!
#269500
0!
#270000
b1000100 4
1!
#270500
0!
#271000
b1000101 4
1!
#271500
0!
#272000
b1000110 4
1!
#272500
0!
#273000
b1000111 4
1!
#273500
0!
#274000
b1001000 4
1!
#274500
0!
#275000
b1001001 4
1!
#275500
0!
#276000
b1001010 4
1!
#276500
0!
#277000
b1001011 4
1!
#277500
0!
#278000
b1001100 4
1!
#278500
0!
#279000
b1001101 4
1!
#279500
0!
#280000
b1001110 4
1!
#280500
0!
#281000
b1001111 4
1!
#281500
0!
#282000
b1010000 4
1!
#282500
0!
#283000
b1010001 4
1!
#283500
0!
#284000
b1010010 4
1!
#284500
0!
#285000
b1010011 4
1!
#285500
0!
#286000
b1010100 4
1!
#286500
0!
#287000
b1010101 4
1!
#287500
0!
#288000
b1010110 4
1!
#288500
0!
#289000
b1010111 4
1!
#289500
0!
#290000
b1011000 4
1!
#290500
0!
#291000
b1011001 4
1!
#291500
0!
#292000
b1011010 4
1!
#292500
0!
#293000
b1011011 4
1!
#293500
0!
#294000
b1011100 4
1!
#294500
0!
#295000
b1011101 4
1!
#295500
0!
#296000
b1011110 4
1!
#296500
0!
#297000
b1011111 4
1!
#297500
0!
#298000
b1100000 4
1!
#298500
0!
#299000
b1100001 4
1!
#299500
0!
#300000
b1100010 4
1!
#300500
0!
#301000
b1100011 4
1!
#301500
0!
#302000
b11 $
b11 )
b11 8
b11 9
b0 (
b0 /
b0 7
b111 %
b111 *
b111 0
b111 5
b11 '
b11 .
b11 1
b11 6
b0 4
1!
#302500
0!
#303000
b1 4
1!
#303500
0!
#304000
b10 4
1!
#304500
0!
#305000
b11 4
1!
#305500
0!
#306000
b100 4
1!
#306500
0!
#307000
b101 4
1!
#307500
0!
#308000
b110 4
1!
#308500
0!
#309000
b111 4
1!
#309200
b0 "
b0 &
b0 -
#309500
0!
#310000
b1000 4
1!
#310500
0!
#311000
b1001 4
1!
#311200
b10011111 $
b10011111 )
b10011111 8
b10011111 9
b1 (
b1 /
b1 7
b1000000000000 "
b1000000000000 &
b1000000000000 -
#311500
0!
#312000
b1010 4
1!
#312500
0!
#313000
b1011 4
1!
#313200
b100101 $
b100101 )
b100101 8
b100101 9
b10 (
b10 /
b10 7
b10000000000000 "
b10000000000000 &
b10000000000000 -
#313500
0!
#314000
b1100 4
1!
#314500
0!
#315000
b1101 4
1!
#315200
b1101 $
b1101 )
b1101 8
b1101 9
b11 (
b11 /
b11 7
b11000000000000 "
b11000000000000 &
b11000000000000 -
#315500
0!
#316000
b1110 4
1!
#316500
0!
#317000
b1111 4
1!
#317200
b10011001 $
b10011001 )
b10011001 8
b10011001 9
b100 (
b100 /
b100 7
b100000000000000 "
b100000000000000 &
b100000000000000 -
#317500
0!
#318000
b10000 4
1!
#318500
0!
#319000
b10001 4
1!
#319200
b1001001 $
b1001001 )
b1001001 8
b1001001 9
b101 (
b101 /
b101 7
b101000000000000 "
b101000000000000 &
b101000000000000 -
#319500
0!
#320000
b10010 4
1!
#320500
0!
#321000
b10011 4
1!
#321200
b1000001 $
b1000001 )
b1000001 8
b1000001 9
b110 (
b110 /
b110 7
b110000000000000 "
b110000000000000 &
b110000000000000 -
#321500
0!
#322000
b10100 4
1!
#322500
0!
#323000
b10101 4
1!
#323200
b11111 $
b11111 )
b11111 8
b11111 9
b111 (
b111 /
b111 7
b111000000000000 "
b111000000000000 &
b111000000000000 -
#323500
0!
#324000
b10110 4
1!
#324500
0!
#325000
b10111 4
1!
#325200
b1 $
b1 )
b1 8
b1 9
b1000 (
b1000 /
b1000 7
b1000000000000000 "
b1000000000000000 &
b1000000000000000 -
#325500
0!
#326000
b11000 4
1!
#326500
0!
#327000
b11001 4
1!
#327200
b1001 $
b1001 )
b1001 8
b1001 9
b1001 (
b1001 /
b1001 7
b1001000000000000 "
b1001000000000000 &
b1001000000000000 -
#327500
0!
#328000
b11010 4
1!
#328500
0!
#329000
b11011 4
1!
#329200
b10001 $
b10001 )
b10001 8
b10001 9
b1010 (
b1010 /
b1010 7
b1010000000000000 "
b1010000000000000 &
b1010000000000000 -
#329500
0!
#330000
b11100 4
1!
#330500
0!
#331000
b11101 4
1!
#331200
b11000001 $
b11000001 )
b11000001 8
b11000001 9
b1011 (
b1011 /
b1011 7
b1011000000000000 "
b1011000000000000 &
b1011000000000000 -
#331500
0!
#332000
b11110 4
1!
#332500
0!
#333000
b11111 4
1!
#333200
b1100011 $
b1100011 )
b1100011 8
b1100011 9
b1100 (
b1100 /
b1100 7
b1100000000000000 "
b1100000000000000 &
b1100000000000000 -
#333500
0!
#334000
b100000 4
1!
#334500
0!
#335000
b100001 4
1!
#335200
b10000101 $
b10000101 )
b10000101 8
b10000101 9
b1101 (
b1101 /
b1101 7
b1101000000000000 "
b1101000000000000 &
b1101000000000000 -
#335500
0!
#336000
b100010 4
1!
#336500
0!
#337000
b100011 4
1!
#337200
b1100001 $
b1100001 )
b1100001 8
b1100001 9
b1110 (
b1110 /
b1110 7
b1110000000000000 "
b1110000000000000 &
b1110000000000000 -
#337500
0!
#338000
b100100 4
1!
#338500
0!
#339000
b100101 4
1!
#339200
b1110001 $
b1110001 )
b1110001 8
b1110001 9
b1111 (
b1111 /
b1111 7
b1111000000000000 "
b1111000000000000 &
b1111000000000000 -
#339500
0!
#340000
b100110 4
1!
#340500
0!
#341000
b100111 4
1!
#341500
0!
#342000
b101000 4
1!
#342500
0!
#343000
b101001 4
1!
#343500
0!
#344000
b101010 4
1!
#344500
0!
#345000
b101011 4
1!
#345500
0!
#346000
b101100 4
1!
#346500
0!
#347000
b101101 4
1!
#347500
0!
#348000
b101110 4
1!
#348500
0!
#349000
b101111 4
1!
#349500
0!
#350000
b110000 4
1!
#350500
0!
#351000
b110001 4
1!
#351500
0!
#352000
b110010 4
1!
#352500
0!
#353000
b110011 4
1!
#353500
0!
#354000
b110100 4
1!
#354500
0!
#355000
b110101 4
1!
#355500
0!
#356000
b110110 4
1!
#356500
0!
#357000
b110111 4
1!
#357500
0!
#358000
b111000 4
1!
#358500
0!
#359000
b111001 4
1!
#359500
0!
#360000
b111010 4
1!
#360500
0!
#361000
b111011 4
1!
#361500
0!
#362000
b111100 4
1!
#362500
0!
#363000
b111101 4
1!
#363500
0!
#364000
b111110 4
1!
#364500
0!
#365000
b111111 4
1!
#365500
0!
#366000
b1000000 4
1!
#366500
0!
#367000
b1000001 4
1!
#367500
0!
#368000
b1000010 4
1!
#368500
0!
#369000
b1000011 4
1!
#369500
0!
#370000
b1000100 4
1!
#370500
0!
#371000
b1000101 4
1!
#371500
0!
#372000
b1000110 4
1!
#372500
0!
#373000
b1000111 4
1!
#373500
0!
#374000
b1001000 4
1!
#374500
0!
#375000
b1001001 4
1!
#375500
0!
#376000
b1001010 4
1!
#376500
0!
#377000
b1001011 4
1!
#377500
0!
#378000
b1001100 4
1!
#378500
0!
#379000
b1001101 4
1!
#379500
0!
#380000
b1001110 4
1!
#380500
0!
#381000
b1001111 4
1!
#381500
0!
#382000
b1010000 4
1!
#382500
0!
#383000
b1010001 4
1!
#383500
0!
#384000
b1010010 4
1!
#384500
0!
#385000
b1010011 4
1!
#385500
0!
#386000
b1010100 4
1!
#386500
0!
#387000
b1010101 4
1!
#387500
0!
#388000
b1010110 4
1!
#388500
0!
#389000
b1010111 4
1!
#389500
0!
#390000
b1011000 4
1!
#390500
0!
#391000
b1011001 4
1!
#391500
0!
#392000
b1011010 4
1!
#392500
0!
#393000
b1011011 4
1!
#393500
0!
#394000
b1011100 4
1!
#394500
0!
#395000
b1011101 4
1!
#395500
0!
#396000
b1011110 4
1!
#396500
0!
#397000
b1011111 4
1!
#397500
0!
#398000
b1100000 4
1!
#398500
0!
#399000
b1100001 4
1!
#399500
0!
#400000
b1100010 4
1!
#400500
0!
#401000
b1100011 4
1!
#401500
0!
#402000
b11 $
b11 )
b11 8
b11 9
b0 (
b0 /
b0 7
b1110 %
b1110 *
b1110 0
b1110 5
b0 '
b0 .
b0 1
b0 6
b0 4
1!
#402500
0!
#403000
b1 4
1!
#403500
0!
#404000
b10 4
1!
#404500
0!
#405000
b11 4
1!
#405500
0!
#406000
b100 4
1!
#406500
0!
#407000
b101 4
1!
#407500
0!
#408000
b110 4
1!
#408500
0!
#409000
b111 4
1!
#409500
0!
#410000
b1000 4
1!
#410500
0!
#411000
b1001 4
1!
