Lab2/cocotb/SevenSegmentControllerTB/waveform.vcd
$date
	Mon Jan 27 22:29:16 2025
$end
$version
	Icarus Verilog
$end
$timescale
	1ps
$end
$scope module SevenSegmentControllerTB $end
$var wire 1 ! Clk $end
$var wire 1 " Reset $end
$var wire 2 # Selector [1:0] $end
$var wire 4 $ AN [3:0] $end
$scope module SevenSegmentControllerInst $end
$var wire 4 % AN [3:0] $end
$var wire 1 ! Clk $end
$var wire 1 " Reset $end
$var wire 2 & Selector [1:0] $end
$var parameter 32 ' ControllerClockCycle $end
$var parameter 32 ( ControllerCounterWidth $end
$var reg 3 ) Counter [2:0] $end
$var reg 4 * an [3:0] $end
$var reg 2 + selector [1:0] $end
$upscope $end
$upscope $end
$enddefinitions $end
$comment Show the parameter values. $end
$dumpall
b11 (
b100 '
$end
#0
$dumpvars
b0 +
b1111 *
b0 )
b0 &
b1111 %
b1111 $
b0 #
1"
1!
$end
#500
0!
#1000
1!
#1200
0"
#1500
0!
#2000
b1110 $
b1110 %
b1110 *
b1 )
1!
#2500
0!
#3000
b10 )
1!
#3500
0!
#3600
1"
#4000
b0 )
b1111 $
b1111 %
b1111 *
1!
#4500
0!
#4600
0"
#5000
b1110 $
b1110 %
b1110 *
b1 )
1!
#5500
0!
#6000
b10 )
1!
#6500
0!
#7000
b11 )
1!
#7500
0!
#8000
b0 )
b1101 $
b1101 %
b1101 *
b1 #
b1 &
b1 +
1!
#8500
0!
#9000
b1 )
1!
#9500
0!
#10000
b10 )
1!
#10500
0!
#11000
b11 )
1!
#11500
0!
#12000
b0 )
b1011 $
b1011 %
b1011 *
b10 #
b10 &
b10 +
1!
#12500
0!
#13000
b1 )
1!
#13500
0!
#14000
b10 )
1!
#14500
0!
#15000
b11 )
1!
#15500
0!
#16000
b0 )
b111 $
b111 %
b111 *
b11 #
b11 &
b11 +
1!
#16500
0!
#17000
b1 )
1!
#17500
0!
#18000
b10 )
1!
#18500
0!
#19000
b11 )
1!
#19500
0!
#19600
1"
#20000
b0 )
b0 #
b0 &
b0 +
b1111 $
b1111 %
b1111 *
1!
#20500
0!
#20600
0"
#21000
b1110 $
b1110 %
b1110 *
b1 )
1!
#21500
0!
#22000
b10 )
1!
#22500
0!
#23000
b11 )
1!
#23500
0!
#24000
b0 )
b1101 $
b1101 %
b1101 *
b1 #
b1 &
b1 +
1!
#24500
0!
#25000
b1 )
1!
#25500
0!
#26000
b10 )
1!
#26500
0!
#27000
b11 )
1!
#27500
0!
#28000
b0 )
b1011 $
b1011 %
b1011 *
b10 #
b10 &
b10 +
1!
#28500
0!
#29000
b1 )
1!
#29500
0!
#30000
b10 )
1!
#30500
0!
#31000
b11 )
1!
#31500
0!
#32000
b0 )
b111 $
b111 %
b111 *
b11 #
b11 &
b11 +
1!
#32500
0!
#33000
b1 )
1!
#33500
0!
#34000
b10 )
1!
#34500
0!
#35000
b11 )
1!
#35500
0!
#35600
1"
#36000
b0 )
b0 #
b0 &
b0 +
b1111 $
b1111 %
b1111 *
1!
#36500
0!
#36600
0"
#37000
b1110 $
b1110 %
b1110 *
b1 )
1!
#37500
0!
#38000
b10 )
1!
#38500
0!
#39000
b11 )
1!
#39500
0!
#40000
b0 )
b1101 $
b1101 %
b1101 *
b1 #
b1 &
b1 +
1!
#40500
0!
#41000
b1 )
1!
#41500
0!
#42000
b10 )
1!
#42500
0!
#43000
b11 )
1!
#43500
0!
#44000
b0 )
b1011 $
b1011 %
b1011 *
b10 #
b10 &
b10 +
1!
#44500
0!
#45000
b1 )
1!
#45500
0!
#46000
b10 )
1!
#46500
0!
#47000
b11 )
1!
#47500
0!
#48000
b0 )
b111 $
b111 %
b111 *
b11 #
b11 &
b11 +
1!
#48500
0!
#49000
b1 )
1!
#49500
0!
#50000
b10 )
1!
#50500
0!
#51000
b11 )
1!
#51500
0!
#51600
1"
#52000
b0 )
b0 #
b0 &
b0 +
b1111 $
b1111 %
b1111 *
1!
#52500
0!
#52600
0"
#53000
b1110 $
b1110 %
b1110 *
b1 )
1!
#53500
0!
#54000
b10 )
1!
#54500
0!
#55000
b11 )
1!
#55500
0!
#56000
b0 )
b1101 $
b1101 %
b1101 *
b1 #
b1 &
b1 +
1!
#56500
0!
#57000
b1 )
1!
#57500
0!
#58000
b10 )
1!
#58500
0!
#59000
b11 )
1!
#59500
0!
#60000
b0 )
b1011 $
b1011 %
b1011 *
b10 #
b10 &
b10 +
1!
#60500
0!
#61000
b1 )
1!
#61500
0!
#62000
b10 )
1!
#62500
0!
#63000
b11 )
1!
#63500
0!
#64000
b0 )
b111 $
b111 %
b111 *
b11 #
b11 &
b11 +
1!
#64500
0!
#65000
b1 )
1!
#65500
0!
#66000
b10 )
1!
#66500
0!
#67000
b11 )
1!
#67500
0!
#67600
1"
#68000
b0 )
b0 #
b0 &
b0 +
b1111 $
b1111 %
b1111 *
1!
#68500
0!
#68600
0"
#69000
b1110 $
b1110 %
b1110 *
b1 )
1!
#69500
0!
#70000
b10 )
1!
#70500
0!
#71000
b11 )
1!
#71500
0!
#72000
b0 )
b1101 $
b1101 %
b1101 *
b1 #
b1 &
b1 +
1!
#72500
0!
#73000
b1 )
1!
#73500
0!
#74000
b10 )
1!
#74500
0!
#75000
b11 )
1!
#75500
0!
#76000
b0 )
b1011 $
b1011 %
b1011 *
b10 #
b10 &
b10 +
1!
#76500
0!
#77000
b1 )
1!
#77500
0!
#78000
b10 )
1!
#78500
0!
#79000
b11 )
1!
#79500
0!
#80000
b0 )
b111 $
b111 %
b111 *
b11 #
b11 &
b11 +
1!
#80500
0!
#81000
b1 )
1!
#81500
0!
#82000
b10 )
1!
#82500
0!
#83000
b11 )
1!
#83500
0!
#83600
1"
#84000
b0 )
b0 #
b0 &
b0 +
b1111 $
b1111 %
b1111 *
1!
#84500
0!
#84600
0"
#85000
b1110 $
b1110 %
b1110 *
b1 )
1!
#85500
0!
#86000
b10 )
1!
#86500
0!
#87000
b11 )
1!
#87500
0!
#88000
b0 )
b1101 $
b1101 %
b1101 *
b1 #
b1 &
b1 +
1!
#88500
0!
#89000
b1 )
1!
#89500
0!
#90000
b10 )
1!
#90500
0!
#91000
b11 )
1!
#91500
0!
#92000
b0 )
b1011 $
b1011 %
b1011 *
b10 #
b10 &
b10 +
1!
#92500
0!
#93000
b1 )
1!
#93500
0!
#94000
b10 )
1!
#94500
0!
#95000
b11 )
1!
#95500
0!
#96000
b0 )
b111 $
b111 %
b111 *
b11 #
b11 &
b11 +
1!
#96500
0!
#97000
b1 )
1!
#97500
0!
#98000
b10 )
1!
#98500
0!
#99000
b11 )
1!
#99500
0!
#99600
1"
#100000
b0 )
b0 #
b0 &
b0 +
b1111 $
b1111 %
b1111 *
1!
#100500
0!
#100600
0"
#101000
b1110 $
b1110 %
b1110 *
b1 )
1!
#101500
0!
#102000
b10 )
1!
#102500
0!
#103000
b11 )
1!
#103500
0!
#104000
b0 )
b1101 $
b1101 %
b1101 *
b1 #
b1 &
b1 +
1!
#104500
0!
#105000
b1 )
1!
#105500
0!
#106000
b10 )
1!
#106500
0!
#107000
b11 )
1!
#107500
0!
#108000
b0 )
b1011 $
b1011 %
b1011 *
b10 #
b10 &
b10 +
1!
#108500
0!
#109000
b1 )
1!
#109500
0!
#110000
b10 )
1!
#110500
0!
#111000
b11 )
1!
#111500
0!
#112000
b0 )
b111 $
b111 %
b111 *
b11 #
b11 &
b11 +
1!
#112500
0!
#113000
b1 )
1!
#113500
0!
#114000
b10 )
1!
#114500
0!
#115000
b11 )
1!
#115500
0!
#115600
1"
#116000
b0 )
b0 #
b0 &
b0 +
b1111 $
b1111 %
b1111 *
1!
#116500
0!
#116600
0"
#117000
b1110 $
b1110 %
b1110 *
b1 )
1!
#117500
0!
#118000
b10 )
1!
#118500
0!
#119000
b11 )
1!
#119500
0!
#120000
b0 )
b1101 $
b1101 %
b1101 *
b1 #
b1 &
b1 +
1!
#120500
0!
#121000
b1 )
1!
#121500
0!
#122000
b10 )
1!
#122500
0!
#123000
b11 )
1!
#123500
0!
#124000
b0 )
b1011 $
b1011 %
b1011 *
b10 #
b10 &
b10 +
1!
#124500
0!
#125000
b1 )
1!
#125500
0!
#126000
b10 )
1!
#126500
0!
#127000
b11 )
1!
#127500
0!
#128000
b0 )
b111 $
b111 %
b111 *
b11 #
b11 &
b11 +
1!
#128500
0!
#129000
b1 )
1!
#129500
0!
#130000
b10 )
1!
#130500
0!
#131000
b11 )
1!
#131500
0!
#131600
1"
#132000
b0 )
b0 #
b0 &
b0 +
b1111 $
b1111 %
b1111 *
1!
#132500
0!
#132600
0"
#133000
b1110 $
b1110 %
b1110 *
b1 )
1!
#133500
0!
#134000
b10 )
1!
#134500
0!
#135000
b11 )
1!
#135500
0!
#136000
b0 )
b1101 $
b1101 %
b1101 *
b1 #
b1 &
b1 +
1!
#136500
0!
#137000
b1 )
1!
#137500
0!
#138000
b10 )
1!
#138500
0!
#139000
b11 )
1!
#139500
0!
#140000
b0 )
b1011 $
b1011 %
b1011 *
b10 #
b10 &
b10 +
1!
#140500
0!
#141000
b1 )
1!
#141500
0!
#142000
b10 )
1!
#142500
0!
#143000
b11 )
1!
#143500
0!
#144000
b0 )
b111 $
b111 %
b111 *
b11 #
b11 &
b11 +
1!
#144500
0!
#145000
b1 )
1!
#145500
0!
#146000
b10 )
1!
#146500
0!
#147000
b11 )
1!
#147500
0!
#147600
1"
#148000
b0 )
b0 #
b0 &
b0 +
b1111 $
b1111 %
b1111 *
1!
#148500
0!
#148600
0"
#149000
b1110 $
b1110 %
b1110 *
b1 )
1!
#149500
0!
#150000
b10 )
1!
#150500
0!
#151000
b11 )
1!
#151500
0!
#152000
b0 )
b1101 $
b1101 %
b1101 *
b1 #
b1 &
b1 +
1!
#152500
0!
#153000
b1 )
1!
#153500
0!
#154000
b10 )
1!
#154500
0!
#155000
b11 )
1!
#155500
0!
#156000
b0 )
b1011 $
b1011 %
b1011 *
b10 #
b10 &
b10 +
1!
#156500
0!
#157000
b1 )
1!
#157500
0!
#158000
b10 )
1!
#158500
0!
#159000
b11 )
1!
#159500
0!
#160000
b0 )
b111 $
b111 %
b111 *
b11 #
b11 &
b11 +
1!
#160500
0!
#161000
b1 )
1!
#161500
0!
#162000
b10 )
1!
#162500
0!
#163000
b11 )
1!
#163500
0!
#163600
1"
#164000
b0 )
b0 #
b0 &
b0 +
b1111 $
b1111 %
b1111 *
1!
#164500
0!
#164600
0"
#165000
b1110 $
b1110 %
b1110 *
b1 )
1!
#165500
0!
#166000
b10 )
1!
#166500
0!
#167000
b11 )
1!
#167500
0!
#168000
b0 )
b1101 $
b1101 %
b1101 *
b1 #
b1 &
b1 +
1!
#168500
0!
#169000
b1 )
1!
#169500
0!
#170000
b10 )
1!
#170500
0!
#171000
b11 )
1!
#171500
0!
#172000
b0 )
b1011 $
b1011 %
b1011 *
b10 #
b10 &
b10 +
1!
#172500
0!
#173000
b1 )
1!
#173500
0!
#174000
b10 )
1!
#174500
0!
#175000
b11 )
1!
#175500
0!
#176000
b0 )
b111 $
b111 %
b111 *
b11 #
b11 &
b11 +
1!
#176500
0!
#177000
b1 )
1!
#177500
0!
#178000
b10 )
1!
#178500
0!
#179000
b11 )
1!
#179500
0!
#179600
1"
#180000
b0 )
b0 #
b0 &
b0 +
b1111 $
b1111 %
b1111 *
1!
#180500
0!
#180600
0"
#181000
b1110 $
b1110 %
b1110 *
b1 )
1!
#181500
0!
#182000
b10 )
1!
#182500
0!
#183000
b11 )
1!
#183500
0!
#184000
b0 )
b1101 $
b1101 %
b1101 *
b1 #
b1 &
b1 +
1!
#184500
0!
#185000
b1 )
1!
#185500
0!
#186000
b10 )
1!
#186500
0!
#187000
b11 )
1!
#187500
0!
#188000
b0 )
b1011 $
b1011 %
b1011 *
b10 #
b10 &
b10 +
1!
#188500
0!
#189000
b1 )
1!
#189500
0!
#190000
b10 )
1!
#190500
0!
#191000
b11 )
1!
#191500
0!
#192000
b0 )
b111 $
b111 %
b111 *
b11 #
b11 &
b11 +
1!
#192500
0!
#193000
b1 )
1!
#193500
0!
#194000
b10 )
1!
#194500
0!
#195000
b11 )
1!
#195500
0!
#195600
1"
#196000
b0 )
b0 #
b0 &
b0 +
b1111 $
b1111 %
b1111 *
1!
#196500
0!
#196600
0"
#197000
b1110 $
b1110 %
b1110 *
b1 )
1!
#197500
0!
#198000
b10 )
1!
#198500
0!
#199000
b11 )
1!
#199500
0!
#200000
b0 )
b1101 $
b1101 %
b1101 *
b1 #
b1 &
b1 +
1!
#200500
0!
#201000
b1 )
1!
#201500
0!
#202000
b10 )
1!
#202500
0!
#203000
b11 )
1!
#203500
0!
#204000
b0 )
b1011 $
b1011 %
b1011 *
b10 #
b10 &
b10 +
1!
#204500
0!
#205000
b1 )
1!
#205500
0!
#206000
b10 )
1!
#206500
0!
#207000
b11 )
1!
#207500
0!
#208000
b0 )
b111 $
b111 %
b111 *
b11 #
b11 &
b11 +
1!
#208500
0!
#209000
b1 )
1!
#209500
0!
#210000
b10 )
1!
#210500
0!
#211000
b11 )
1!
#211500
0!
#211600
1"
#212000
b0 )
b0 #
b0 &
b0 +
b1111 $
b1111 %
b1111 *
1!
#212500
0!
#212600
0"
#213000
b1110 $
b1110 %
b1110 *
b1 )
1!
#213500
0!
#214000
b10 )
1!
#214500
0!
#215000
b11 )
1!
#215500
0!
#216000
b0 )
b1101 $
b1101 %
b1101 *
b1 #
b1 &
b1 +
1!
#216500
0!
#217000
b1 )
1!
#217500
0!
#218000
b10 )
1!
#218500
0!
#219000
b11 )
1!
#219500
0!
#220000
b0 )
b1011 $
b1011 %
b1011 *
b10 #
b10 &
b10 +
1!
#220500
0!
#221000
b1 )
1!
#221500
0!
#222000
b10 )
1!
#222500
0!
#223000
b11 )
1!
#223500
0!
#224000
b0 )
b111 $
b111 %
b111 *
b11 #
b11 &
b11 +
1!
#224500
0!
#225000
b1 )
1!
#225500
0!
#226000
b10 )
1!
#226500
0!
#227000
b11 )
1!
#227500
0!
#227600
1"
#228000
b0 )
b0 #
b0 &
b0 +
b1111 $
b1111 %
b1111 *
1!
#228500
0!
#228600
0"
#229000
b1110 $
b1110 %
b1110 *
b1 )
1!
#229500
0!
#230000
b10 )
1!
#230500
0!
#231000
b11 )
1!
#231500
0!
#232000
b0 )
b1101 $
b1101 %
b1101 *
b1 #
b1 &
b1 +
1!
#232500
0!
#233000
b1 )
1!
#233500
0!
#234000
b10 )
1!
#234500
0!
#235000
b11 )
1!
#235500
0!
#236000
b0 )
b1011 $
b1011 %
b1011 *
b10 #
b10 &
b10 +
1!
#236500
0!
#237000
b1 )
1!
#237500
0!
#238000
b10 )
1!
#238500
0!
#239000
b11 )
1!
#239500
0!
#240000
b0 )
b111 $
b111 %
b111 *
b11 #
b11 &
b11 +
1!
#240500
0!
#241000
b1 )
1!
#241500
0!
#242000
b10 )
1!
#242500
0!
#243000
b11 )
1!
#243500
0!
#243600
1"
#244000
b0 )
b0 #
b0 &
b0 +
b1111 $
b1111 %
b1111 *
1!
#244500
0!
#244600
0"
#245000
b1110 $
b1110 %
b1110 *
b1 )
1!
#245500
0!
#246000
b10 )
1!
#246500
0!
#247000
b11 )
1!
#247500
0!
#248000
b0 )
b1101 $
b1101 %
b1101 *
b1 #
b1 &
b1 +
1!
#248500
0!
#249000
b1 )
1!
#249500
0!
#250000
b10 )
1!
#250500
0!
#251000
b11 )
1!
#251500
0!
#252000
b0 )
b1011 $
b1011 %
b1011 *
b10 #
b10 &
b10 +
1!
#252500
0!
#253000
b1 )
1!
#253500
0!
#254000
b10 )
1!
#254500
0!
#255000
b11 )
1!
#255500
0!
#256000
b0 )
b111 $
b111 %
b111 *
b11 #
b11 &
b11 +
1!
#256500
0!
#257000
b1 )
1!
#257500
0!
#258000
b10 )
1!
#258500
0!
#259000
b11 )
1!
#259500
0!
#259600
1"
#260000
b0 )
b0 #
b0 &
b0 +
b1111 $
b1111 %
b1111 *
1!
