Lab2/cocotb/SingleBCDTB/waveform.vcd
$date
	Mon Jan 27 23:22:34 2025
$end
$version
	Icarus Verilog
$end
$timescale
	1ps
$end
$scope module SingleBCDTB $end
$var wire 1 ! Cin $end
$var wire 1 " Clk $end
$var wire 1 # Reset $end
$var wire 1 $ Trigger $end
$var wire 4 % DataOut [3:0] $end
$var wire 1 & Cout $end
$scope module SingleBCDInst $end
$var wire 1 ! Cin $end
$var wire 1 " Clk $end
$var wire 4 ' DataOut [3:0] $end
$var wire 1 # Reset $end
$var wire 1 $ Trigger $end
$var wire 1 & Cout $end
$var reg 4 ( dataOut [3:0] $end
$upscope $end
$upscope $end
$enddefinitions $end
$comment Show the parameter values. $end
$dumpall
$end
#0
$dumpvars
b0 (
b0 '
0&
b0 %
0$
1#
1"
0!
$end
#500
0"
#1000
1"
#1200
0#
#1500
0"
#2000
1"
#2400
1#
#2500
0"
#3000
1"
#3400
1$
#3500
0"
#4000
1"
#4400
0#
#4500
0"
#5000
b1 %
b1 '
b1 (
1"
#5500
0"
#6000
b10 %
b10 '
b10 (
1"
#6500
0"
#7000
b11 %
b11 '
b11 (
1"
#7500
0"
#8000
b100 %
b100 '
b100 (
1"
#8500
0"
#9000
b101 %
b101 '
b101 (
1"
#9500
0"
#10000
b110 %
b110 '
b110 (
1"
#10500
0"
#11000
b111 %
b111 '
b111 (
1"
#11500
0"
#12000
b1000 %
b1000 '
b1000 (
1"
#12500
0"
#13000
1&
b1001 %
b1001 '
b1001 (
1"
#13500
0"
#14000
0&
b0 %
b0 '
b0 (
1"
#14500
0"
#15000
b1 %
b1 '
b1 (
1"
#15500
0"
#16000
b10 %
b10 '
b10 (
1"
#16500
0"
#17000
b11 %
b11 '
b11 (
1"
#17500
0"
#18000
b100 %
b100 '
b100 (
1"
#18500
0"
#19000
b101 %
b101 '
b101 (
1"
#19500
0"
#20000
b110 %
b110 '
b110 (
1"
#20500
0"
#21000
b111 %
b111 '
b111 (
1"
#21500
0"
#22000
b1000 %
b1000 '
b1000 (
1"
#22500
0"
#23000
1&
b1001 %
b1001 '
b1001 (
1"
#23500
0"
#24000
0&
b0 %
b0 '
b0 (
1"
#24500
0"
#25000
b1 %
b1 '
b1 (
1"
#25500
0"
#26000
b10 %
b10 '
b10 (
1"
#26500
0"
#27000
b11 %
b11 '
b11 (
1"
#27500
0"
#28000
b100 %
b100 '
b100 (
1"
#28500
0"
#29000
b101 %
b101 '
b101 (
1"
#29500
0"
#30000
b110 %
b110 '
b110 (
1"
#30500
0"
#31000
b111 %
b111 '
b111 (
1"
#31500
0"
#32000
b1000 %
b1000 '
b1000 (
1"
#32500
0"
#33000
1&
b1001 %
b1001 '
b1001 (
1"
#33400
0&
1#
#33500
0"
#34000
b0 %
b0 '
b0 (
1"
#34400
0#
#34500
0"
#35000
b1 %
b1 '
b1 (
1"
#35500
0"
#36000
b10 %
b10 '
b10 (
1"
#36500
0"
#37000
b11 %
b11 '
b11 (
1"
#37500
0"
#38000
b100 %
b100 '
b100 (
1"
#38500
0"
#39000
b101 %
b101 '
b101 (
1"
#39500
0"
#40000
b110 %
b110 '
b110 (
1"
#40500
0"
#41000
b111 %
b111 '
b111 (
1"
#41500
0"
#42000
b1000 %
b1000 '
b1000 (
1"
#42500
0"
#43000
1&
b1001 %
b1001 '
b1001 (
1"
#43500
0"
#44000
0&
b0 %
b0 '
b0 (
1"
#44500
0"
#45000
b1 %
b1 '
b1 (
1"
#45500
0"
#46000
b10 %
b10 '
b10 (
1"
#46500
0"
#47000
b11 %
b11 '
b11 (
1"
#47500
0"
#48000
b100 %
b100 '
b100 (
1"
#48500
0"
#49000
b101 %
b101 '
b101 (
1"
#49500
0"
#50000
b110 %
b110 '
b110 (
1"
#50500
0"
#51000
b111 %
b111 '
b111 (
1"
#51500
0"
#52000
b1000 %
b1000 '
b1000 (
1"
#52500
0"
#53000
1&
b1001 %
b1001 '
b1001 (
1"
#53500
0"
#54000
0&
b0 %
b0 '
b0 (
1"
#54500
0"
#55000
b1 %
b1 '
b1 (
1"
#55500
0"
#56000
b10 %
b10 '
b10 (
1"
#56500
0"
#57000
b11 %
b11 '
b11 (
1"
#57500
0"
#58000
b100 %
b100 '
b100 (
1"
#58500
0"
#59000
b101 %
b101 '
b101 (
1"
#59500
0"
#60000
b110 %
b110 '
b110 (
1"
#60500
0"
#61000
b111 %
b111 '
b111 (
1"
#61500
0"
#62000
b1000 %
b1000 '
b1000 (
1"
#62500
0"
#63000
1&
b1001 %
b1001 '
b1001 (
1"
#63400
0&
1#
#63500
0"
#64000
b0 %
b0 '
b0 (
1"
#64400
0#
#64500
0"
#65000
b1 %
b1 '
b1 (
1"
#65500
0"
#66000
b10 %
b10 '
b10 (
1"
#66500
0"
#67000
b11 %
b11 '
b11 (
1"
#67500
0"
#68000
b100 %
b100 '
b100 (
1"
#68500
0"
#69000
b101 %
b101 '
b101 (
1"
#69500
0"
#70000
b110 %
b110 '
b110 (
1"
#70500
0"
#71000
b111 %
b111 '
b111 (
1"
#71500
0"
#72000
b1000 %
b1000 '
b1000 (
1"
#72500
0"
#73000
1&
b1001 %
b1001 '
b1001 (
1"
#73500
0"
#74000
0&
b0 %
b0 '
b0 (
1"
#74500
0"
#75000
b1 %
b1 '
b1 (
1"
#75500
0"
#76000
b10 %
b10 '
b10 (
1"
#76500
0"
#77000
b11 %
b11 '
b11 (
1"
#77500
0"
#78000
b100 %
b100 '
b100 (
1"
#78500
0"
#79000
b101 %
b101 '
b101 (
1"
#79500
0"
#80000
b110 %
b110 '
b110 (
1"
#80500
0"
#81000
b111 %
b111 '
b111 (
1"
#81500
0"
#82000
b1000 %
b1000 '
b1000 (
1"
#82500
0"
#83000
1&
b1001 %
b1001 '
b1001 (
1"
#83500
0"
#84000
0&
b0 %
b0 '
b0 (
1"
#84500
0"
#85000
b1 %
b1 '
b1 (
1"
#85500
0"
#86000
b10 %
b10 '
b10 (
1"
#86500
0"
#87000
b11 %
b11 '
b11 (
1"
#87500
0"
#88000
b100 %
b100 '
b100 (
1"
#88500
0"
#89000
b101 %
b101 '
b101 (
1"
#89500
0"
#90000
b110 %
b110 '
b110 (
1"
#90500
0"
#91000
b111 %
b111 '
b111 (
1"
#91500
0"
#92000
b1000 %
b1000 '
b1000 (
1"
#92500
0"
#93000
1&
b1001 %
b1001 '
b1001 (
1"
#93400
0&
1#
#93500
0"
#94000
b0 %
b0 '
b0 (
1"
#94400
0#
#94500
0"
#95000
b1 %
b1 '
b1 (
1"
#95500
0"
#96000
b10 %
b10 '
b10 (
1"
#96500
0"
#97000
b11 %
b11 '
b11 (
1"
#97500
0"
#98000
b100 %
b100 '
b100 (
1"
#98500
0"
#99000
b101 %
b101 '
b101 (
1"
#99500
0"
#100000
b110 %
b110 '
b110 (
1"
#100500
0"
#101000
b111 %
b111 '
b111 (
1"
#101500
0"
#102000
b1000 %
b1000 '
b1000 (
1"
#102500
0"
#103000
1&
b1001 %
b1001 '
b1001 (
1"
#103500
0"
#104000
0&
b0 %
b0 '
b0 (
1"
#104500
0"
#105000
b1 %
b1 '
b1 (
1"
#105500
0"
#106000
b10 %
b10 '
b10 (
1"
#106500
0"
#107000
b11 %
b11 '
b11 (
1"
#107500
0"
#108000
b100 %
b100 '
b100 (
1"
#108500
0"
#109000
b101 %
b101 '
b101 (
1"
#109500
0"
#110000
b110 %
b110 '
b110 (
1"
#110500
0"
#111000
b111 %
b111 '
b111 (
1"
#111500
0"
#112000
b1000 %
b1000 '
b1000 (
1"
#112500
0"
#113000
1&
b1001 %
b1001 '
b1001 (
1"
#113500
0"
#114000
0&
b0 %
b0 '
b0 (
1"
#114500
0"
#115000
b1 %
b1 '
b1 (
1"
#115500
0"
#116000
b10 %
b10 '
b10 (
1"
#116500
0"
#117000
b11 %
b11 '
b11 (
1"
#117500
0"
#118000
b100 %
b100 '
b100 (
1"
#118500
0"
#119000
b101 %
b101 '
b101 (
1"
#119500
0"
#120000
b110 %
b110 '
b110 (
1"
#120500
0"
#121000
b111 %
b111 '
b111 (
1"
#121500
0"
#122000
b1000 %
b1000 '
b1000 (
1"
#122500
0"
#123000
1&
b1001 %
b1001 '
b1001 (
1"
#123400
0&
1#
#123500
0"
#124000
b0 %
b0 '
b0 (
1"
#124400
0#
#124500
0"
#125000
b1 %
b1 '
b1 (
1"
#125500
0"
#126000
b10 %
b10 '
b10 (
1"
#126500
0"
#127000
b11 %
b11 '
b11 (
1"
#127500
0"
#128000
b100 %
b100 '
b100 (
1"
#128500
0"
#129000
b101 %
b101 '
b101 (
1"
#129500
0"
#130000
b110 %
b110 '
b110 (
1"
#130500
0"
#131000
b111 %
b111 '
b111 (
1"
#131500
0"
#132000
b1000 %
b1000 '
b1000 (
1"
#132500
0"
#133000
1&
b1001 %
b1001 '
b1001 (
1"
#133500
0"
#134000
0&
b0 %
b0 '
b0 (
1"
#134500
0"
#135000
b1 %
b1 '
b1 (
1"
#135500
0"
#136000
b10 %
b10 '
b10 (
1"
#136500
0"
#137000
b11 %
b11 '
b11 (
1"
#137500
0"
#138000
b100 %
b100 '
b100 (
1"
#138500
0"
#139000
b101 %
b101 '
b101 (
1"
#139500
0"
#140000
b110 %
b110 '
b110 (
1"
#140500
0"
#141000
b111 %
b111 '
b111 (
1"
#141500
0"
#142000
b1000 %
b1000 '
b1000 (
1"
#142500
0"
#143000
1&
b1001 %
b1001 '
b1001 (
1"
#143500
0"
#144000
0&
b0 %
b0 '
b0 (
1"
#144500
0"
#145000
b1 %
b1 '
b1 (
1"
#145500
0"
#146000
b10 %
b10 '
b10 (
1"
#146500
0"
#147000
b11 %
b11 '
b11 (
1"
#147500
0"
#148000
b100 %
b100 '
b100 (
1"
#148500
0"
#149000
b101 %
b101 '
b101 (
1"
#149500
0"
#150000
b110 %
b110 '
b110 (
1"
#150500
0"
#151000
b111 %
b111 '
b111 (
1"
#151500
0"
#152000
b1000 %
b1000 '
b1000 (
1"
#152500
0"
#153000
1&
b1001 %
b1001 '
b1001 (
1"
#153400
1!
#153500
0"
#154000
0&
b1 %
b1 '
b1 (
1"
